<?xml version="1.0" encoding="utf-8"?>
<!-- Generator: Adobe Illustrator 16.0.0, SVG Export Plug-In . SVG Version: 6.00 Build 0)  -->
<!DOCTYPE svg PUBLIC "-//W3C//DTD SVG 1.1//EN" "http://www.w3.org/Graphics/SVG/1.1/DTD/svg11.dtd">
<svg version="1.1"
	 id="svg2" xmlns:dc="http://purl.org/dc/elements/1.1/" xmlns:cc="http://creativecommons.org/ns#" xmlns:rdf="http://www.w3.org/1999/02/22-rdf-syntax-ns#" xmlns:svg="http://www.w3.org/2000/svg" xmlns:sodipodi="http://sodipodi.sourceforge.net/DTD/sodipodi-0.dtd" xmlns:inkscape="http://www.inkscape.org/namespaces/inkscape" sodipodi:docname="art.svg" inkscape:version="0.48.3.1 r9886"
	 xmlns="http://www.w3.org/2000/svg" xmlns:xlink="http://www.w3.org/1999/xlink" x="0px" y="0px" width="750px" height="350px"
	 viewBox="-33.455 722.681 750 350" enable-background="new -33.455 722.681 750 350" xml:space="preserve">
<sodipodi:namedview  showguides="true" showgrid="true" inkscape:cy="223.12551" inkscape:cx="116.35833" inkscape:zoom="3.6203867" borderopacity="1.0" bordercolor="#666666" pagecolor="#ffffff" id="base" inkscape:guide-bbox="true" inkscape:snap-global="false" inkscape:snap-grids="true" inkscape:window-maximized="1" inkscape:window-y="25" inkscape:current-layer="layer1" inkscape:window-x="0" inkscape:pageshadow="2" inkscape:document-units="px" inkscape:pageopacity="0.0" inkscape:window-height="1031" inkscape:window-width="1920">
	<inkscape:grid  type="xygrid" enabled="true" visible="true" empspacing="5" id="grid3006" snapvisiblegridlinesonly="true">
		</inkscape:grid>
	<sodipodi:guide  position="0,1055" orientation="1,0" id="guide3982"></sodipodi:guide>
	<sodipodi:guide  position="50,1050" orientation="1,0" id="guide3984"></sodipodi:guide>
	<sodipodi:guide  position="-20,50" orientation="0,1" id="guide4030"></sodipodi:guide>
	<sodipodi:guide  position="-100,100" orientation="0,1" id="guide4032"></sodipodi:guide>
	<sodipodi:guide  position="100,40" orientation="1,0" id="guide4075"></sodipodi:guide>
	<sodipodi:guide  position="150,65" orientation="1,0" id="guide4077"></sodipodi:guide>
	<sodipodi:guide  position="40,150" orientation="0,1" id="guide4079"></sodipodi:guide>
	<sodipodi:guide  position="200,55" orientation="1,0" id="guide4081"></sodipodi:guide>
	<sodipodi:guide  position="-26.785714,200" orientation="0,1" id="guide5936"></sodipodi:guide>
	<sodipodi:guide  position="0,250" orientation="0,1" id="guide5938"></sodipodi:guide>
	<sodipodi:guide  position="50,300" orientation="0,1" id="guide5940"></sodipodi:guide>
</sodipodi:namedview>
<g id="g4046" transform="matrix(1.054839,0,0,1,-10.912242,-247.84247)">
	<g id="g3976" transform="translate(-3.0000002e-8,923.584)">
		<g id="g4063" transform="translate(-3.1239378,2.7779195)">
			<path id="path3972" inkscape:connector-curvature="0" stroke="#B68F10" stroke-width="3.398" d="M220.35,111.595l5.519-5.811
				h33.114l5.519,5.811"/>
			<rect id="rect3010-1" x="220.35" y="111.595" fill="#543E2B" width="44.152" height="29.059"/>
			<path id="rect3791-3" inkscape:connector-curvature="0" fill="#B68F10" d="M218.694,109.867v1.744v29.059v1.744h1.656h44.152
				h1.655v-1.744v-29.059v-1.744h-1.655H220.35H218.694z M222.006,113.355h40.84v25.57h-40.84V113.355z"/>
			<path id="path3257" inkscape:connector-curvature="0" fill="#543E2B" stroke="#B68F10" stroke-width="3.398" d="M225.868,105.785
				l-5.519-11.623h44.152l-5.519,11.623H225.868z"/>
		</g>
	</g>
</g>
<g id="g4153" transform="translate(2e-6,-150.00002)">
	<path id="rect3010" inkscape:connector-curvature="0" fill="#543E2B" d="M218.191,874.683h46.444v46.275h-46.444V874.683z"/>
	<path id="rect3791" inkscape:connector-curvature="0" fill="#B68F10" d="M216.462,890.287v1.736v28.922v1.736h1.742h46.444h1.742
		v-1.736v-28.922v-1.736h-1.742h-46.444H216.462z M219.945,893.757h42.961v25.453h-42.961V893.757z"/>
	<path id="path3811" inkscape:connector-curvature="0" fill="#B68F10" d="M216.389,872.681v19.414h3.483v-19.414H216.389z"/>
	<g id="g3850" transform="matrix(0.61843454,0,0,0.61619873,-18.266427,921.3595)">
		<path id="path3848" inkscape:connector-curvature="0" fill="#A9A9A9" d="M430.596-36.252c-5.908,5.908-15.488,5.908-21.397,0
			c-5.908-5.908-5.908-15.487,0-21.395c5.909-5.908,15.488-5.908,21.397,0S436.504-42.16,430.596-36.252z"/>
		<g id="g3844" transform="translate(-10.000002,11.249994)">
			
				<path id="path3838" inkscape:connector-curvature="0" stroke="#000000" stroke-width="3" stroke-linecap="round" stroke-linejoin="round" d="
				M434.898-61.949c0,2.761-2.238,4.999-5,4.999c-2.761,0-5-2.238-5-4.999s2.239-5.002,5-5.002
				C432.66-66.951,434.898-64.71,434.898-61.949z"/>
			
				<path id="path3842" inkscape:transform-center-y="-1.25" inkscape:connector-curvature="0" stroke="#000000" stroke-width="3" stroke-linecap="round" stroke-linejoin="round" d="
				M429.898-56.95l4.33,7.503h-8.66L429.898-56.95z"/>
		</g>
	</g>
	<path id="path3811-3" inkscape:connector-curvature="0" fill="#B68F10" d="M262.996,872.681v19.414h3.483v-19.414H262.996z"/>
</g>
<g>
	<g>
		<path id="path4192" inkscape:connector-curvature="0" fill="#B8860B" d="M-12.802,977.245l-0.908,8.176h10.899l-0.908-8.176
			H-12.802z"/>
		
			<path id="path4166" sodipodi:type="arc" sodipodi:cx="125" sodipodi:cy="927.36218" sodipodi:rx="25" sodipodi:ry="25" fill="#FAEBD7" d="
			M-3.72,977.247c0,2.508-2.033,4.541-4.541,4.541c-2.508,0-4.542-2.033-4.542-4.541c0-2.51,2.033-4.543,4.542-4.543
			C-5.753,972.704-3.72,974.737-3.72,977.247z"/>
		<path id="path4168" sodipodi:nodetypes="cacsc" inkscape:connector-curvature="0" fill="#B8860B" d="M-12.802,977.245
			c0,0,4.094-3.16,6.358-2.725c1.261,0.244,2.725,2.725,2.725,2.725s0-4.541-4.541-4.541
			C-12.802,972.704-12.802,977.245-12.802,977.245"/>
		
			<path id="path4170" sodipodi:type="arc" sodipodi:cx="115" sodipodi:cy="927.36218" sodipodi:rx="5.075954" sodipodi:ry="5.075954" fill="#1E90FF" d="
			M-9.155,977.247c0,0.508-0.412,0.922-0.921,0.922s-0.923-0.412-0.923-0.92c0-0.002,0-0.002,0-0.002
			c0-0.51,0.412-0.924,0.921-0.924s0.923,0.412,0.923,0.92C-9.155,977.245-9.155,977.245-9.155,977.247z"/>
		
			<path id="path4170-4" sodipodi:type="arc" sodipodi:cx="115" sodipodi:cy="927.36218" sodipodi:rx="5.075954" sodipodi:ry="5.075954" fill="#1E90FF" d="
			M-5.536,977.247c0,0.508-0.412,0.922-0.921,0.922s-0.922-0.412-0.923-0.92c0-0.002,0-0.002,0-0.002
			c0-0.51,0.412-0.924,0.921-0.924c0.509,0,0.922,0.412,0.923,0.92C-5.536,977.245-5.536,977.245-5.536,977.247z"/>
		<path id="path4190" sodipodi:nodetypes="cscc" inkscape:connector-curvature="0" fill="#FF6347" d="M-10.078,979.971
			c0,0,0.909,0.908,1.817,0.908s1.816-0.908,1.816-0.908H-10.078z"/>
		<rect id="rect4194" x="-9.455" y="980.88" fill="#FAEBD7" width="2.544" height="2.725"/>
		<path id="path4196" inkscape:connector-curvature="0" fill="#FAEBD7" d="M-10.986,983.604h5.45l-1.816,1.816h-1.816
			L-10.986,983.604z"/>
		<path id="path4198" sodipodi:nodetypes="cccccccccccc" inkscape:connector-curvature="0" fill="#1E90FF" d="M-13.71,983.604
			l-0.908,1.816l3.633,9.082h5.45l2.725-9.082l-0.908-1.816l-0.908-0.908l-0.908,0.908l-1.816,1.816h-1.816l-2.725-2.725
			L-13.71,983.604z"/>
		<rect id="rect4213" x="-10.986" y="994.503" fill="#FFFF00" width="5.45" height="0.908"/>
		<path id="path4261" sodipodi:nodetypes="cccccccc" inkscape:connector-curvature="0" fill="#FAEBD7" d="M-14.684,1010.073
			l2.134,8.205l-1.161,1.656l1.816,0.908l1.816-0.908l-1.159-1.783l1.289-9.959L-14.684,1010.073z"/>
		<path id="path4261-4" sodipodi:nodetypes="cccccccc" inkscape:connector-curvature="0" fill="#FAEBD7" d="M-3.72,1006.471
			l-1.911,3.781l0.095,1.508l-1.816,0.908l-0.908-0.908l0.908-1.816l-0.065-5.482L-3.72,1006.471z"/>
		<path id="path4281-0" sodipodi:nodetypes="casscsc" inkscape:connector-curvature="0" fill="#1E90FF" d="M-7.353,1009.944
			c0,0-0.908,1.139-0.908,1.816c0,0.676,0.375,1.527,0.908,1.816c0.533,0.287,1.14-0.232,1.816-0.908c0.908-0.908,0-2.725,0-2.725
			s-0.751,2.391-1.816,1.816C-8.418,1011.184-7.353,1009.944-7.353,1009.944z"/>
		<path id="path4215" sodipodi:nodetypes="csscc" inkscape:connector-curvature="0" fill="#1E90FF" d="M-10.986,995.411
			c0,0-9.149,12.693-4.541,15.441c4.773,2.846,4.729-4.389,13.624-3.635c4.103,0.35-3.633-11.807-3.633-11.807H-10.986z"/>
		
			<path id="path4217" sodipodi:type="arc" sodipodi:cx="92.5" sodipodi:cy="1034.8622" sodipodi:rx="7.5" sodipodi:ry="7.5" fill="#FAEBD7" d="
			M-11.894,997.227c0,1.004-0.813,1.816-1.816,1.816s-1.816-0.813-1.816-1.816c0-1.002,0.813-1.816,1.816-1.816
			S-11.894,996.225-11.894,997.227z"/>
		<path id="path4239" sodipodi:nodetypes="ccccccc" inkscape:connector-curvature="0" fill="#FAEBD7" d="M-12.802,996.016
			l-1.816,2.119l-0.908-5.299l0.908-7.416l2.725,2.119l-1.816,5.297L-12.802,996.016z"/>
		<path id="path4241" sodipodi:nodetypes="ccccccc" inkscape:connector-curvature="0" fill="#FAEBD7" d="M-2.812,985.421
			l-0.908,2.725l0.908,1.816v2.725l0.909,0.908l1.816-3.633L-2.812,985.421z"/>
		
			<path id="path4217-5" sodipodi:type="arc" sodipodi:cx="92.5" sodipodi:cy="1034.8622" sodipodi:rx="7.5" sodipodi:ry="7.5" fill="#FAEBD7" d="
			M-0.995,993.188c0,0.779-0.61,1.412-1.362,1.412c-0.752,0-1.363-0.633-1.363-1.412s0.61-1.41,1.363-1.41
			C-1.605,991.778-0.995,992.409-0.995,993.188z"/>
		<path id="path4281" sodipodi:nodetypes="casacsc" inkscape:connector-curvature="0" fill="#1E90FF" d="M-12.5,1018.118
			c0,0-1.211,1.088-1.211,1.816c0,1.092,1.211,2.725,1.816,2.725s1.816-1.633,1.816-2.725c0-0.729-1.211-1.816-1.211-1.816
			s0.605,1.816-0.605,1.816S-12.5,1018.118-12.5,1018.118z"/>
	</g>
	<g>
		<path id="path4192-9" inkscape:connector-curvature="0" fill="#B8860B" d="M-4.108,1027.269l0.908,8.174h-10.899l0.908-8.174
			H-4.108z"/>
		
			<path id="path4166-5" sodipodi:type="arc" sodipodi:cx="125" sodipodi:cy="927.36218" sodipodi:rx="25" sodipodi:ry="25" fill="#FAEBD7" d="
			M-13.19,1027.269c0,2.508,2.033,4.541,4.541,4.541c2.508,0,4.542-2.033,4.542-4.541s-2.033-4.541-4.542-4.541
			C-11.157,1022.728-13.19,1024.761-13.19,1027.269z"/>
		<path id="path4168-4" sodipodi:nodetypes="cacsc" inkscape:connector-curvature="0" fill="#B8860B" d="M-4.108,1027.269
			c0,0-4.094-3.162-6.358-2.725c-1.261,0.242-2.725,2.725-2.725,2.725s0-4.541,4.541-4.541
			C-4.108,1022.728-4.108,1027.269-4.108,1027.269"/>
		
			<path id="path4170-2" sodipodi:type="arc" sodipodi:cx="115" sodipodi:cy="927.36218" sodipodi:rx="5.075954" sodipodi:ry="5.075954" fill="#1E90FF" d="
			M-7.755,1027.269c0,0.51,0.412,0.922,0.921,0.922c0.509,0.002,0.923-0.41,0.923-0.92v-0.002c0-0.51-0.412-0.922-0.921-0.924
			c-0.509,0-0.923,0.412-0.923,0.922C-7.755,1027.267-7.755,1027.267-7.755,1027.269z"/>
		
			<path id="path4170-4-6" sodipodi:type="arc" sodipodi:cx="115" sodipodi:cy="927.36218" sodipodi:rx="5.075954" sodipodi:ry="5.075954" fill="#1E90FF" d="
			M-11.374,1027.269c0,0.51,0.412,0.922,0.921,0.922c0.509,0.002,0.923-0.41,0.923-0.92v-0.002c0-0.51-0.412-0.922-0.921-0.924
			c-0.509,0-0.923,0.412-0.923,0.922C-11.374,1027.267-11.374,1027.267-11.374,1027.269z"/>
		<path id="path4190-6" sodipodi:nodetypes="cscc" inkscape:connector-curvature="0" fill="#FF6347" d="M-6.833,1029.994
			c0,0-0.908,0.908-1.817,0.908c-0.908,0-1.816-0.908-1.816-0.908H-6.833z"/>
		<rect id="rect4194-8" x="-10" y="1030.902" fill="#FAEBD7" width="2.545" height="2.725"/>
		<path id="path4196-6" inkscape:connector-curvature="0" fill="#FAEBD7" d="M-5.924,1033.627h-5.45l1.816,1.816h1.817
			L-5.924,1033.627z"/>
		<path id="path4198-3" sodipodi:nodetypes="cccccccccccc" inkscape:connector-curvature="0" fill="#1E90FF" d="M-3.2,1033.627
			l0.908,1.816l-3.633,9.082h-5.45l-2.725-9.082l0.908-1.816l0.908-0.908l0.908,0.908l1.816,1.816h1.817l2.725-2.725L-3.2,1033.627z
			"/>
		<rect id="rect4213-0" x="-11.374" y="1044.525" fill="#FFFF00" width="5.45" height="0.908"/>
		<path id="path4261-41" sodipodi:nodetypes="cccccccc" inkscape:connector-curvature="0" fill="#FAEBD7" d="M-2.227,1060.095
			l-2.134,8.207l1.161,1.654l-1.816,0.908l-1.816-0.908l1.159-1.783l-1.289-9.959L-2.227,1060.095z"/>
		<path id="path4261-4-1" sodipodi:nodetypes="cccccccc" inkscape:connector-curvature="0" fill="#FAEBD7" d="M-13.19,1056.496
			l1.911,3.779l-0.095,1.508l1.816,0.908l0.908-0.908l-0.908-1.816l0.065-5.482L-13.19,1056.496z"/>
		<path id="path4281-0-9" sodipodi:nodetypes="casscsc" inkscape:connector-curvature="0" fill="#1E90FF" d="M-9.558,1059.967
			c0,0,0.908,1.139,0.908,1.816s-0.375,1.529-0.908,1.816s-1.14-0.23-1.816-0.908c-0.908-0.908,0-2.725,0-2.725
			s0.751,2.393,1.816,1.816S-9.558,1059.967-9.558,1059.967z"/>
		<path id="path4215-5" sodipodi:nodetypes="csscc" inkscape:connector-curvature="0" fill="#1E90FF" d="M-5.924,1045.433
			c0,0,9.149,12.693,4.541,15.441c-4.773,2.846-4.729-4.387-13.624-3.633c-4.104,0.348,3.633-11.809,3.633-11.809H-5.924z"/>
		
			<path id="path4217-0" sodipodi:type="arc" sodipodi:cx="92.5" sodipodi:cy="1034.8622" sodipodi:rx="7.5" sodipodi:ry="7.5" fill="#FAEBD7" d="
			M-5.016,1047.252c0,1.002,0.813,1.816,1.816,1.816c1.003,0,1.816-0.814,1.816-1.816c0-1.004-0.813-1.818-1.816-1.818
			C-4.203,1045.433-5.016,1046.248-5.016,1047.252z"/>
		<path id="path4239-3" sodipodi:nodetypes="ccccccc" inkscape:connector-curvature="0" fill="#FAEBD7" d="M-4.108,1046.039
			l1.816,2.119l0.908-5.297l-0.908-7.418l-2.725,2.119l1.816,5.299L-4.108,1046.039z"/>
		<path id="path4241-6" sodipodi:nodetypes="ccccccc" inkscape:connector-curvature="0" fill="#FAEBD7" d="M-14.099,1035.443
			l0.908,2.725l-0.908,1.816v2.725l-0.908,0.908l-1.817-3.633L-14.099,1035.443z"/>
		
			<path id="path4217-5-2" sodipodi:type="arc" sodipodi:cx="92.5" sodipodi:cy="1034.8622" sodipodi:rx="7.5" sodipodi:ry="7.5" fill="#FAEBD7" d="
			M-15.916,1043.213c0,0.779,0.61,1.41,1.363,1.41s1.362-0.631,1.362-1.41s-0.61-1.412-1.362-1.412
			S-15.916,1042.433-15.916,1043.213z"/>
		<path id="path4281-2" sodipodi:nodetypes="casacsc" inkscape:connector-curvature="0" fill="#1E90FF" d="M-4.411,1068.14
			c0,0,1.211,1.09,1.211,1.816c0,1.092-1.211,2.725-1.816,2.725s-1.816-1.633-1.816-2.725c0-0.727,1.211-1.816,1.211-1.816
			s-0.605,1.816,0.605,1.816S-4.411,1068.14-4.411,1068.14z"/>
	</g>
	<g id="g4961" transform="translate(-50.357143,0)">
		
			<path id="path4166-1" sodipodi:type="arc" sodipodi:cx="125" sodipodi:cy="927.36218" sodipodi:rx="25" sodipodi:ry="25" fill="#FAEBD7" d="
			M96.637,977.269c0,2.508-2.033,4.541-4.541,4.541c-2.508,0-4.542-2.033-4.542-4.541c0-2.51,2.033-4.543,4.542-4.543
			C94.604,972.726,96.637,974.76,96.637,977.269z"/>
		<path id="path4168-40" sodipodi:nodetypes="cacsc" inkscape:connector-curvature="0" fill="#B8860B" d="M87.555,977.267
			c0,0,4.094-3.16,6.358-2.725c1.261,0.244,2.725,2.725,2.725,2.725s0-4.541-4.541-4.541
			C87.555,972.726,87.555,977.267,87.555,977.267"/>
		<rect id="rect4194-6" x="91.188" y="980.902" fill="#FAEBD7" width="1.816" height="2.725"/>
		<path id="path4196-1" inkscape:connector-curvature="0" fill="#FAEBD7" d="M89.371,983.627h5.45l-1.816,1.816h-1.816
			L89.371,983.627z"/>
		<path id="path4198-8" sodipodi:nodetypes="cccccccccccc" inkscape:connector-curvature="0" fill="#1E90FF" d="M86.647,983.627
			l-0.908,1.816l3.633,9.082h5.45l2.725-9.082l-0.908-1.816l-0.908-0.908l-0.908,0.908l-1.816,1.816h-1.816l-2.725-2.725
			L86.647,983.627z"/>
		<rect id="rect4213-3" x="89.371" y="994.525" fill="#FFFF00" width="5.45" height="0.908"/>
		<path id="path4261-9" sodipodi:nodetypes="cccccccc" inkscape:connector-curvature="0" fill="#FAEBD7" d="M85.674,1010.095
			l2.134,8.205l-1.161,1.656l1.816,0.908l1.816-0.908l-1.159-1.783l1.289-9.959L85.674,1010.095z"/>
		<path id="path4261-4-8" sodipodi:nodetypes="cccccccc" inkscape:connector-curvature="0" fill="#FAEBD7" d="M96.637,1006.494
			l-1.911,3.781l0.095,1.508l-1.816,0.908l-0.908-0.908l0.908-1.816l-0.065-5.482L96.637,1006.494z"/>
		<path id="path4281-0-0" sodipodi:nodetypes="casscsc" inkscape:connector-curvature="0" fill="#1E90FF" d="M93.005,1009.967
			c0,0-0.908,1.139-0.908,1.816c0,0.676,0.375,1.527,0.908,1.816c0.533,0.287,1.14-0.232,1.816-0.908c0.908-0.908,0-2.725,0-2.725
			s-0.082,1.23-1.191,1.057C92.433,1010.836,93.005,1009.967,93.005,1009.967z"/>
		
			<path id="path4217-58" sodipodi:type="arc" sodipodi:cx="92.5" sodipodi:cy="1034.8622" sodipodi:rx="7.5" sodipodi:ry="7.5" fill="#FAEBD7" d="
			M88.463,997.25c0,1.004-0.813,1.816-1.816,1.816s-1.816-0.813-1.816-1.816s0.813-1.816,1.816-1.816S88.463,996.246,88.463,997.25z
			"/>
		<path id="path4239-4" sodipodi:nodetypes="ccccccc" inkscape:connector-curvature="0" fill="#FAEBD7" d="M87.555,996.039
			l-1.816,2.119l-0.908-5.299l0.908-7.416l2.725,2.119l-1.816,5.297L87.555,996.039z"/>
		<path id="path4241-8" sodipodi:nodetypes="ccccccc" inkscape:connector-curvature="0" fill="#FAEBD7" d="M97.546,985.443
			l-0.908,2.725l0.908,1.816v2.725l0.909,0.908l1.816-3.633L97.546,985.443z"/>
		
			<path id="path4217-5-8" sodipodi:type="arc" sodipodi:cx="92.5" sodipodi:cy="1034.8622" sodipodi:rx="7.5" sodipodi:ry="7.5" fill="#FAEBD7" d="
			M99.363,993.211c0,0.779-0.61,1.412-1.362,1.412c-0.752,0-1.363-0.633-1.363-1.412s0.61-1.41,1.363-1.41
			C98.752,991.801,99.363,992.431,99.363,993.211z"/>
		<path id="path4281-3" sodipodi:nodetypes="casacsc" inkscape:connector-curvature="0" fill="#1E90FF" d="M87.858,1018.14
			c0,0-1.211,1.088-1.211,1.816c0,1.092,1.211,2.725,1.816,2.725s1.816-1.633,1.816-2.725c0-0.729-1.211-1.816-1.211-1.816
			s0.65,0.744-0.561,0.744S87.858,1018.14,87.858,1018.14z"/>
		<path id="path4192-2" sodipodi:nodetypes="ccscccccc" inkscape:connector-curvature="0" fill="#B8860B" d="M87.555,977.267
			l-0.64,7.551c0,0,2.857,2.428,5.896,2.945c5.04,0.859,4.735-2.32,4.735-2.32l-0.908-8.176l-0.667-1.918l-1.292-1.385l-2.762-0.268
			L87.555,977.267z"/>
		<path id="path4215-4" sodipodi:nodetypes="csscc" inkscape:connector-curvature="0" fill="#1E90FF" d="M89.371,995.433
			c0,0-9.149,12.693-4.541,15.441c4.773,2.846,4.729-4.389,13.624-3.635c4.103,0.35-3.633-11.807-3.633-11.807H89.371z"/>
		
			<path id="path4166-1-9" sodipodi:type="arc" sodipodi:cx="125" sodipodi:cy="927.36218" sodipodi:rx="25" sodipodi:ry="25" fill="#FAEBD7" d="
			M96.637,977.269c0,2.508-2.033,4.541-4.541,4.541c-2.508,0-4.542-2.033-4.542-4.541c0-2.51,2.033-4.543,4.542-4.543
			C94.604,972.726,96.637,974.76,96.637,977.269z"/>
		<path id="path4168-40-1" sodipodi:nodetypes="cacsc" inkscape:connector-curvature="0" fill="#B8860B" d="M87.555,977.267
			c0,0,4.094-3.16,6.358-2.725c1.261,0.244,2.725,2.725,2.725,2.725s0-4.541-4.541-4.541
			C87.555,972.726,87.555,977.267,87.555,977.267"/>
		<rect id="rect4194-6-7" x="91.188" y="980.902" fill="#FAEBD7" width="1.816" height="2.725"/>
		<path id="path4196-1-6" inkscape:connector-curvature="0" fill="#FAEBD7" d="M89.371,983.627h5.45l-1.816,1.816h-1.816
			L89.371,983.627z"/>
		<path id="path4198-8-8" sodipodi:nodetypes="cccccccccccc" inkscape:connector-curvature="0" fill="#1E90FF" d="M86.647,983.627
			l-0.908,1.816l3.633,9.082h5.45l2.725-9.082l-0.908-1.816l-0.908-0.908l-0.908,0.908l-1.816,1.816h-1.816l-2.725-2.725
			L86.647,983.627z"/>
		<rect id="rect4213-3-5" x="89.371" y="994.525" fill="#FFFF00" width="5.45" height="0.908"/>
		<path id="path4261-9-2" sodipodi:nodetypes="cccccccc" inkscape:connector-curvature="0" fill="#FAEBD7" d="M85.674,1010.095
			l2.134,8.205l-1.161,1.656l1.816,0.908l1.816-0.908l-1.159-1.783l1.289-9.959L85.674,1010.095z"/>
		<path id="path4261-4-8-7" sodipodi:nodetypes="cccccccc" inkscape:connector-curvature="0" fill="#FAEBD7" d="M96.637,1006.494
			l-1.911,3.781l0.095,1.508l-1.816,0.908l-0.908-0.908l0.908-1.816l-0.065-5.482L96.637,1006.494z"/>
		<path id="path4281-0-0-5" sodipodi:nodetypes="casscsc" inkscape:connector-curvature="0" fill="#1E90FF" d="M93.005,1009.967
			c0,0-0.908,1.139-0.908,1.816c0,0.676,0.375,1.527,0.908,1.816c0.533,0.287,1.14-0.232,1.816-0.908c0.908-0.908,0-2.725,0-2.725
			s-0.082,1.23-1.191,1.057C92.433,1010.836,93.005,1009.967,93.005,1009.967z"/>
		
			<path id="path4217-58-7" sodipodi:type="arc" sodipodi:cx="92.5" sodipodi:cy="1034.8622" sodipodi:rx="7.5" sodipodi:ry="7.5" fill="#FAEBD7" d="
			M88.463,997.25c0,1.004-0.813,1.816-1.816,1.816s-1.816-0.813-1.816-1.816s0.813-1.816,1.816-1.816S88.463,996.246,88.463,997.25z
			"/>
		<path id="path4239-4-9" sodipodi:nodetypes="ccccccc" inkscape:connector-curvature="0" fill="#FAEBD7" d="M87.555,996.039
			l-1.816,2.119l-0.908-5.299l0.908-7.416l2.725,2.119l-1.816,5.297L87.555,996.039z"/>
		<path id="path4241-8-3" sodipodi:nodetypes="ccccccc" inkscape:connector-curvature="0" fill="#FAEBD7" d="M97.546,985.443
			l-0.908,2.725l0.908,1.816v2.725l0.909,0.908l1.816-3.633L97.546,985.443z"/>
		
			<path id="path4217-5-8-7" sodipodi:type="arc" sodipodi:cx="92.5" sodipodi:cy="1034.8622" sodipodi:rx="7.5" sodipodi:ry="7.5" fill="#FAEBD7" d="
			M99.363,993.211c0,0.779-0.61,1.412-1.362,1.412c-0.752,0-1.363-0.633-1.363-1.412s0.61-1.41,1.363-1.41
			C98.752,991.801,99.363,992.431,99.363,993.211z"/>
		<path id="path4281-3-5" sodipodi:nodetypes="casacsc" inkscape:connector-curvature="0" fill="#1E90FF" d="M87.858,1018.14
			c0,0-1.211,1.088-1.211,1.816c0,1.092,1.211,2.725,1.816,2.725s1.816-1.633,1.816-2.725c0-0.729-1.211-1.816-1.211-1.816
			s0.65,0.744-0.561,0.744S87.858,1018.14,87.858,1018.14z"/>
		<path id="path4192-2-1" sodipodi:nodetypes="ccscccccc" inkscape:connector-curvature="0" fill="#B8860B" d="M87.555,977.267
			l-0.64,7.551c0,0,2.857,2.428,5.896,2.945c5.04,0.859,4.735-2.32,4.735-2.32l-0.908-8.176l-0.667-1.918l-1.292-1.385l-2.762-0.268
			L87.555,977.267z"/>
		<path id="path4215-4-7" sodipodi:nodetypes="csscc" inkscape:connector-curvature="0" fill="#1E90FF" d="M89.371,995.433
			c0,0-9.149,12.693-4.541,15.441c4.773,2.846,4.729-4.389,13.624-3.635c4.103,0.35-3.633-11.807-3.633-11.807H89.371z"/>
	</g>
	<g id="g4961-2" transform="matrix(-1,0,0,1,199.64285,49.977216)">
		
			<path id="path4166-1-4" sodipodi:type="arc" sodipodi:cx="125" sodipodi:cy="927.36218" sodipodi:rx="25" sodipodi:ry="25" fill="#FAEBD7" d="
			M162.833,977.292c0,2.508-2.033,4.541-4.541,4.541c-2.508,0-4.542-2.033-4.542-4.541s2.033-4.541,4.542-4.541
			C160.8,972.751,162.833,974.784,162.833,977.292z"/>
		<path id="path4168-40-9" sodipodi:nodetypes="cacsc" inkscape:connector-curvature="0" fill="#B8860B" d="M153.751,977.292
			c0,0,4.094-3.162,6.358-2.725c1.261,0.242,2.725,2.725,2.725,2.725s0-4.541-4.541-4.541
			C153.751,972.751,153.751,977.292,153.751,977.292"/>
		<rect id="rect4194-6-9" x="157.384" y="983.649" fill="#FAEBD7" width="1.817" height="-2.725"/>
		<path id="path4196-1-9" inkscape:connector-curvature="0" fill="#FAEBD7" d="M155.567,983.649h5.45l-1.816,1.816h-1.817
			L155.567,983.649z"/>
		<path id="path4198-8-2" sodipodi:nodetypes="cccccccccccc" inkscape:connector-curvature="0" fill="#1E90FF" d="M152.843,983.649
			l-0.908,1.816l3.633,9.082h5.45l2.725-9.082l-0.908-1.816l-0.908-0.908l-0.908,0.908l-1.816,1.816h-1.817l-2.725-2.725
			L152.843,983.649z"/>
		<rect id="rect4213-3-6" x="155.567" y="995.456" fill="#FFFF00" width="5.45" height="-0.908"/>
		<path id="path4261-9-1" sodipodi:nodetypes="cccccccc" inkscape:connector-curvature="0" fill="#FAEBD7" d="M151.869,1010.118
			l2.134,8.207l-1.161,1.654l1.816,0.908l1.816-0.908l-1.159-1.783l1.289-9.959L151.869,1010.118z"/>
		<path id="path4261-4-8-9" sodipodi:nodetypes="cccccccc" inkscape:connector-curvature="0" fill="#FAEBD7" d="M162.833,1006.519
			l-1.911,3.779l0.095,1.508l-1.816,0.908l-0.908-0.908l0.908-1.816l-0.065-5.482L162.833,1006.519z"/>
		<path id="path4281-0-0-0" sodipodi:nodetypes="casscsc" inkscape:connector-curvature="0" fill="#1E90FF" d="M159.2,1009.989
			c0,0-0.908,1.139-0.908,1.816s0.375,1.529,0.908,1.816s1.14-0.23,1.816-0.908c0.908-0.908,0-2.725,0-2.725
			s-0.082,1.23-1.191,1.057C158.629,1010.86,159.2,1009.989,159.2,1009.989z"/>
		
			<path id="path4217-58-4" sodipodi:type="arc" sodipodi:cx="92.5" sodipodi:cy="1034.8622" sodipodi:rx="7.5" sodipodi:ry="7.5" fill="#FAEBD7" d="
			M154.659,997.274c0,1.002-0.813,1.816-1.816,1.816s-1.816-0.814-1.816-1.816c0-1.004,0.813-1.818,1.816-1.818
			S154.659,996.271,154.659,997.274z"/>
		<path id="path4239-4-4" sodipodi:nodetypes="ccccccc" inkscape:connector-curvature="0" fill="#FAEBD7" d="M153.751,996.062
			l-1.816,2.121l-0.908-5.299l0.908-7.418l2.725,2.119l-1.816,5.299L153.751,996.062z"/>
		<path id="path4241-8-8" sodipodi:nodetypes="ccccccc" inkscape:connector-curvature="0" fill="#FAEBD7" d="M163.741,985.466
			l-0.908,2.725l0.908,1.816v2.725l0.908,0.908l1.817-3.633L163.741,985.466z"/>
		
			<path id="path4217-5-8-3" sodipodi:type="arc" sodipodi:cx="92.5" sodipodi:cy="1034.8622" sodipodi:rx="7.5" sodipodi:ry="7.5" fill="#FAEBD7" d="
			M165.558,993.235c0,0.779-0.61,1.41-1.363,1.41s-1.362-0.631-1.362-1.41s0.61-1.412,1.362-1.412S165.558,992.456,165.558,993.235z
			"/>
		<path id="path4281-3-7" sodipodi:nodetypes="casacsc" inkscape:connector-curvature="0" fill="#1E90FF" d="M154.053,1018.163
			c0,0-1.211,1.09-1.211,1.816c0,1.092,1.211,2.725,1.816,2.725s1.816-1.633,1.816-2.725c0-0.727-1.211-1.816-1.211-1.816
			s0.65,0.746-0.561,0.746C153.492,1018.909,154.053,1018.163,154.053,1018.163z"/>
		<path id="path4192-2-2" sodipodi:nodetypes="ccscccccc" inkscape:connector-curvature="0" fill="#B8860B" d="M153.751,977.292
			l-0.641,7.549c0,0,2.857,2.43,5.896,2.947c5.04,0.857,4.735-2.322,4.735-2.322l-0.908-8.174l-0.667-1.92l-1.292-1.385
			l-2.762-0.268L153.751,977.292z"/>
		<path id="path4215-4-1" sodipodi:nodetypes="csscc" inkscape:connector-curvature="0" fill="#1E90FF" d="M155.567,995.456
			c0,0-9.149,12.693-4.541,15.441c4.773,2.846,4.729-4.387,13.624-3.633c4.104,0.348-3.633-11.809-3.633-11.809H155.567z"/>
		
			<path id="path4166-1-9-7" sodipodi:type="arc" sodipodi:cx="125" sodipodi:cy="927.36218" sodipodi:rx="25" sodipodi:ry="25" fill="#FAEBD7" d="
			M162.833,977.292c0,2.508-2.033,4.541-4.541,4.541c-2.508,0-4.542-2.033-4.542-4.541s2.033-4.541,4.542-4.541
			C160.8,972.751,162.833,974.784,162.833,977.292z"/>
		<path id="path4168-40-1-9" sodipodi:nodetypes="cacsc" inkscape:connector-curvature="0" fill="#B8860B" d="M153.751,977.292
			c0,0,4.094-3.162,6.358-2.725c1.261,0.242,2.725,2.725,2.725,2.725s0-4.541-4.541-4.541
			C153.751,972.751,153.751,977.292,153.751,977.292"/>
		<rect id="rect4194-6-7-9" x="157.384" y="983.649" fill="#FAEBD7" width="1.817" height="-2.725"/>
		<path id="path4196-1-6-2" inkscape:connector-curvature="0" fill="#FAEBD7" d="M155.567,983.649h5.45l-1.816,1.816h-1.817
			L155.567,983.649z"/>
		<path id="path4198-8-8-3" sodipodi:nodetypes="cccccccccccc" inkscape:connector-curvature="0" fill="#1E90FF" d="
			M152.843,983.649l-0.908,1.816l3.633,9.082h5.45l2.725-9.082l-0.908-1.816l-0.908-0.908l-0.908,0.908l-1.816,1.816h-1.817
			l-2.725-2.725L152.843,983.649z"/>
		<rect id="rect4213-3-5-5" x="155.567" y="995.456" fill="#FFFF00" width="5.45" height="-0.908"/>
		<path id="path4261-9-2-3" sodipodi:nodetypes="cccccccc" inkscape:connector-curvature="0" fill="#FAEBD7" d="M151.869,1010.118
			l2.134,8.207l-1.161,1.654l1.816,0.908l1.816-0.908l-1.159-1.783l1.289-9.959L151.869,1010.118z"/>
		<path id="path4261-4-8-7-4" sodipodi:nodetypes="cccccccc" inkscape:connector-curvature="0" fill="#FAEBD7" d="M162.833,1006.519
			l-1.911,3.779l0.095,1.508l-1.816,0.908l-0.908-0.908l0.908-1.816l-0.065-5.482L162.833,1006.519z"/>
		<path id="path4281-0-0-5-9" sodipodi:nodetypes="casscsc" inkscape:connector-curvature="0" fill="#1E90FF" d="M159.2,1009.989
			c0,0-0.908,1.139-0.908,1.816s0.375,1.529,0.908,1.816s1.14-0.23,1.816-0.908c0.908-0.908,0-2.725,0-2.725
			s-0.082,1.23-1.191,1.057C158.629,1010.86,159.2,1009.989,159.2,1009.989z"/>
		
			<path id="path4217-58-7-8" sodipodi:type="arc" sodipodi:cx="92.5" sodipodi:cy="1034.8622" sodipodi:rx="7.5" sodipodi:ry="7.5" fill="#FAEBD7" d="
			M154.659,997.274c0,1.002-0.813,1.816-1.816,1.816s-1.816-0.814-1.816-1.816c0-1.004,0.813-1.818,1.816-1.818
			S154.659,996.271,154.659,997.274z"/>
		<path id="path4239-4-9-6" sodipodi:nodetypes="ccccccc" inkscape:connector-curvature="0" fill="#FAEBD7" d="M153.751,996.062
			l-1.816,2.121l-0.908-5.299l0.908-7.418l2.725,2.119l-1.816,5.299L153.751,996.062z"/>
		<path id="path4241-8-3-4" sodipodi:nodetypes="ccccccc" inkscape:connector-curvature="0" fill="#FAEBD7" d="M163.741,985.466
			l-0.908,2.725l0.908,1.816v2.725l0.908,0.908l1.817-3.633L163.741,985.466z"/>
		
			<path id="path4217-5-8-7-7" sodipodi:type="arc" sodipodi:cx="92.5" sodipodi:cy="1034.8622" sodipodi:rx="7.5" sodipodi:ry="7.5" fill="#FAEBD7" d="
			M165.558,993.235c0,0.779-0.61,1.41-1.363,1.41s-1.362-0.631-1.362-1.41s0.61-1.412,1.362-1.412S165.558,992.456,165.558,993.235z
			"/>
		<path id="path4281-3-5-6" sodipodi:nodetypes="casacsc" inkscape:connector-curvature="0" fill="#1E90FF" d="M154.053,1018.163
			c0,0-1.211,1.09-1.211,1.816c0,1.092,1.211,2.725,1.816,2.725s1.816-1.633,1.816-2.725c0-0.727-1.211-1.816-1.211-1.816
			s0.65,0.746-0.561,0.746C153.492,1018.909,154.053,1018.163,154.053,1018.163z"/>
		<path id="path4192-2-1-8" sodipodi:nodetypes="ccscccccc" inkscape:connector-curvature="0" fill="#B8860B" d="M153.751,977.292
			l-0.641,7.549c0,0,2.857,2.43,5.896,2.947c5.04,0.857,4.735-2.322,4.735-2.322l-0.908-8.174l-0.667-1.92l-1.292-1.385
			l-2.762-0.268L153.751,977.292z"/>
		<path id="path4215-4-7-1" sodipodi:nodetypes="csscc" inkscape:connector-curvature="0" fill="#1E90FF" d="M155.567,995.456
			c0,0-9.149,12.693-4.541,15.441c4.773,2.846,4.729-4.387,13.624-3.633c4.104,0.348-3.633-11.809-3.633-11.809H155.567z"/>
	</g>
	<g id="g5640" transform="translate(-50.357143,0)">
		
			<g id="g5536" transform="matrix(-0.77014995,0.63786288,0.63786288,0.77014995,-299.37565,107.36639)" inkscape:transform-center-y="3.6061132" inkscape:transform-center-x="-3.9861647">
			<path id="path4241-3" sodipodi:nodetypes="ccccccc" inkscape:connector-curvature="0" fill="#FAEBD7" d="M219.203,959.276
				l-1.143,1.593l1.143,2.948l-0.001,2.724l0.909,0.909l1.817-3.633L219.203,959.276z"/>
			
				<path id="path4217-5-9" sodipodi:type="arc" sodipodi:cx="92.5" sodipodi:cy="1034.8622" sodipodi:rx="7.5" sodipodi:ry="7.5" fill="#FAEBD7" d="
				M221.02,967.045c0,0.779-0.61,1.411-1.363,1.41c-0.753,0-1.362-0.632-1.362-1.41c-0.001-0.781,0.61-1.411,1.362-1.412
				C220.409,965.634,221.019,966.265,221.02,967.045z"/>
		</g>
		<path id="path4192-29" sodipodi:nodetypes="ccacc" inkscape:connector-curvature="0" fill="#B8860B" d="M137.241,977.035
			l-0.908,8.176c0,0,3.477,2.949,5.255,2.262c3.563-1.379,4.735-10.438,4.735-10.438H137.241z"/>
		
			<path id="path4166-6" sodipodi:type="arc" sodipodi:cx="125" sodipodi:cy="927.36218" sodipodi:rx="25" sodipodi:ry="25" fill="#FAEBD7" d="
			M146.324,977.037c0,2.508-2.033,4.541-4.541,4.541c-2.508,0-4.542-2.033-4.542-4.541c0-2.51,2.033-4.543,4.542-4.543
			C144.291,972.494,146.324,974.527,146.324,977.037z"/>
		<path id="path4168-3" sodipodi:nodetypes="cacsc" inkscape:connector-curvature="0" fill="#B8860B" d="M137.241,977.035
			c0,0,4.094-3.16,6.358-2.725c1.261,0.244,2.725,2.725,2.725,2.725s0-4.541-4.541-4.541
			C137.241,972.494,137.241,977.035,137.241,977.035"/>
		
			<path id="path4170-4-8" sodipodi:type="arc" sodipodi:cx="115" sodipodi:cy="927.36218" sodipodi:rx="5.075954" sodipodi:ry="5.075954" fill="#1E90FF" d="
			M144.508,977.037c0,0.508-0.413,0.922-0.922,0.922s-0.922-0.414-0.922-0.922c0-0.51,0.413-0.924,0.922-0.924
			S144.508,976.527,144.508,977.037z"/>
		<g>
			<defs>
				<circle id="SVGID_1_" cx="141.783" cy="977.037" r="4.541"/>
			</defs>
			<clipPath id="SVGID_2_">
				<use xlink:href="#SVGID_1_"  overflow="visible"/>
			</clipPath>
			
				<path id="path4190-9" sodipodi:nodetypes="cscc" inkscape:connector-curvature="0" clip-path="url(#SVGID_2_)" fill="#FF6347" d="
				M142.997,979.761c0,0,0.908,0.908,1.816,0.908s1.816-0.908,1.816-0.908H142.997z"/>
		</g>
		<rect id="rect4194-3" x="140.609" y="980.67" fill="#FAEBD7" width="2.349" height="2.725"/>
		<path id="path4198-32" sodipodi:nodetypes="cccccc" inkscape:connector-curvature="0" fill="#1E90FF" d="M138.589,989.472
			l0.469,4.82h5.45l2.081-5.82c0-3-3.225-5.969-5-6C138.479,982.607,137.68,987.5,138.589,989.472z"/>
		<rect id="rect4213-9" x="139.058" y="994.293" fill="#FFFF00" width="5.45" height="0.908"/>
		<g id="g5501" transform="matrix(0.93907649,-0.34370824,0.34370824,0.93907649,-329.30313,124.57595)">
			<g id="g5469-4" transform="translate(10.245847,0.02278262)">
				<path id="path4261-6-3" sodipodi:nodetypes="cccccccc" inkscape:connector-curvature="0" fill="#FAEBD7" d="M129.716,993.376
					l2.903,11.984l-1.161,1.655l1.817,0.908l1.816-0.908l-1.159-1.782l1.289-9.961L129.716,993.376z"/>
				<path id="path4281-7-8" sodipodi:nodetypes="casacsc" inkscape:connector-curvature="0" fill="#1E90FF" d="M132.668,1005.199
					c0,0-1.379,1.107-1.211,1.815c0.423,1.787,4.178,2.725,4.784,2.726c0.606-0.001-0.683-1.858-1.151-2.726
					c-0.345-0.64-1.211-1.816-1.211-1.816s1.679,1.941,0.468,1.943C133.136,1007.143,132.668,1005.199,132.668,1005.199z"/>
			</g>
		</g>
		<g id="g5501-6" transform="matrix(0.81034494,0.58595315,-0.58595315,0.81034494,601.7964,81.833844)">
			<g id="g5469-4-2" transform="translate(10.245847,0.02278262)">
				<path id="path4261-6-3-7" sodipodi:nodetypes="cccccccccc" inkscape:connector-curvature="0" fill="#FAEBD7" d="
					M153.508,1022.612l1.256,2.659l0.849,8.562l-1.16,1.656l1.816,0.909l1.817-0.909l-1.16-1.784l1.716-9.8l-1.431-7.155
					L153.508,1022.612z"/>
				<path id="path4281-7-8-7" sodipodi:nodetypes="casacsc" inkscape:connector-curvature="0" fill="#1E90FF" d="M155.664,1033.672
					c0,0-1.379,1.108-1.211,1.816c0.423,1.786,4.178,2.725,4.784,2.725c0.605-0.001-0.684-1.858-1.151-2.725
					c-0.344-0.64-1.211-1.816-1.211-1.816s1.679,1.943,0.467,1.942C156.132,1035.614,155.664,1033.672,155.664,1033.672z"/>
			</g>
		</g>
		<path id="path4215-7" sodipodi:nodetypes="csscc" inkscape:connector-curvature="0" fill="#1E90FF" d="M144.575,995.201
			c0,0,9.149,12.693,4.542,15.441c-4.773,2.846-4.729-4.389-13.624-3.635c-4.103,0.35,3.633-11.807,3.633-11.807H144.575z"/>
		
			<g id="g5461" transform="matrix(0.84183706,0.53973176,-0.53973176,0.84183706,552.60417,61.026479)" inkscape:transform-center-y="5.6332286" inkscape:transform-center-x="3.9021039">
			
				<path id="path4217-4" sodipodi:type="arc" sodipodi:cx="92.5" sodipodi:cy="1034.8622" sodipodi:rx="7.5" sodipodi:ry="7.5" fill="#FAEBD7" d="
				M154.288,1011.87c0,1.003-0.813,1.816-1.816,1.816c-1.003,0-1.817-0.814-1.817-1.817c0-1.003,0.813-1.816,1.816-1.816
				C153.475,1010.053,154.288,1010.868,154.288,1011.87z"/>
			<path id="path4239-1" sodipodi:nodetypes="ccccccc" inkscape:connector-curvature="0" fill="#FAEBD7" d="M153.38,1010.659
				l-1.817,2.118l-1.51-6.101c0.677-2.747,0.123-5.984,1.511-6.908c2.223-0.238,2.725,2.413,2.725,2.413l-2.419,4.495
				L153.38,1010.659z"/>
		</g>
	</g>
	<g>
		
			<g id="g5536-3" transform="matrix(-0.73787301,-0.67493957,-0.67493957,0.73787301,910.79157,426.82153)" inkscape:transform-center-y="4.3590093" inkscape:transform-center-x="3.1211115">
			<path id="path4241-3-2" sodipodi:nodetypes="ccccccc" inkscape:connector-curvature="0" fill="#FAEBD7" d="M191.762,1002.909
				l-1.144,1.593l1.143,2.949l0,2.724l0.907,0.909l1.817-3.634L191.762,1002.909z"/>
			
				<path id="path4217-5-9-8" sodipodi:type="arc" sodipodi:cx="92.5" sodipodi:cy="1034.8622" sodipodi:rx="7.5" sodipodi:ry="7.5" fill="#FAEBD7" d="
				M193.578,1010.679c0,0.779-0.609,1.41-1.361,1.41c-0.752,0-1.364-0.63-1.363-1.411c-0.001-0.779,0.61-1.411,1.362-1.411
				C192.969,1009.267,193.579,1009.899,193.578,1010.679z"/>
		</g>
		<path id="path4192-29-3" sodipodi:nodetypes="ccacc" inkscape:connector-curvature="0" fill="#B8860B" d="M86.573,1027.297
			l-3.229,6.834c0,0,3.695,3.881,5.88,3.334c3.891-0.975,6.432-10.168,6.432-10.168H86.573z"/>
		
			<path id="path4166-6-4" sodipodi:type="arc" sodipodi:cx="125" sodipodi:cy="927.36218" sodipodi:rx="25" sodipodi:ry="25" fill="#FAEBD7" d="
			M95.656,1027.297c0,2.508-2.033,4.541-4.541,4.541c-2.508,0-4.542-2.033-4.542-4.541s2.033-4.541,4.542-4.541
			C93.623,1022.756,95.656,1024.79,95.656,1027.297z"/>
		<path id="path4168-3-1" sodipodi:nodetypes="cacsc" inkscape:connector-curvature="0" fill="#B8860B" d="M86.573,1027.297
			c0,0,4.094-3.162,6.358-2.725c1.261,0.242,2.725,2.725,2.725,2.725s0-4.541-4.541-4.541
			C86.573,1022.756,86.573,1027.297,86.573,1027.297"/>
		
			<path id="path4170-4-8-0" sodipodi:type="arc" sodipodi:cx="115" sodipodi:cy="927.36218" sodipodi:rx="5.075954" sodipodi:ry="5.075954" fill="#1E90FF" d="
			M93.839,1027.297c0,0.51-0.412,0.922-0.921,0.922c-0.509,0.002-0.922-0.41-0.923-0.92v-0.002c0-0.51,0.412-0.924,0.921-0.924
			c0.509,0,0.922,0.412,0.923,0.922C93.839,1027.296,93.839,1027.296,93.839,1027.297z"/>
		<g>
			<defs>
				<circle id="SVGID_3_" cx="91.115" cy="1027.297" r="4.541"/>
			</defs>
			<clipPath id="SVGID_4_">
				<use xlink:href="#SVGID_3_"  overflow="visible"/>
			</clipPath>
			
				<path id="path4190-9-9" sodipodi:nodetypes="cscc" inkscape:connector-curvature="0" clip-path="url(#SVGID_4_)" fill="#FF6347" d="
				M92.329,1030.022c0,0,0.908,0.908,1.816,0.908s1.816-0.908,1.816-0.908H92.329z"/>
		</g>
		<rect id="rect4194-3-6" x="89.94" y="1030.93" fill="#FAEBD7" width="2.349" height="2.725"/>
		<path id="path4198-32-2" sodipodi:nodetypes="cccccc" inkscape:connector-curvature="0" fill="#1E90FF" d="M87.92,1039.733
			l0.469,4.82h5.45l2.081-5.82c0-3-3.225-5.967-5-6C87.811,1032.868,87.012,1037.762,87.92,1039.733z"/>
		<rect id="rect4213-9-7" x="88.39" y="1044.553" fill="#FFFF00" width="5.45" height="0.908"/>
		
			<g id="g5501-7" transform="matrix(0.95611125,0.2930039,-0.2930039,0.95611125,240.34336,39.768081)" inkscape:transform-center-y="5.292507" inkscape:transform-center-x="3.6072971">
			<g id="g5469-4-0" transform="translate(10.245847,0.02278262)">
				<path id="path4261-6-3-4" sodipodi:nodetypes="cccccccc" inkscape:connector-curvature="0" fill="#FAEBD7" d="M141.736,1015.356
					l2.903,11.984l-1.161,1.655l1.816,0.908l1.817-0.908l-1.159-1.784l1.289-9.959L141.736,1015.356z"/>
				<path id="path4281-7-8-1" sodipodi:nodetypes="casacsc" inkscape:connector-curvature="0" fill="#1E90FF" d="M144.689,1027.177
					c0,0-1.379,1.109-1.211,1.817c0.423,1.785,4.178,2.724,4.784,2.724c0.605,0-0.684-1.856-1.151-2.724
					c-0.345-0.642-1.211-1.817-1.211-1.817s1.679,1.943,0.468,1.942C145.156,1029.12,144.689,1027.177,144.689,1027.177z"/>
			</g>
		</g>
		
			<g id="g5501-6-4" transform="matrix(0.99254986,-0.12183921,0.12183921,0.99254986,-175.10891,79.675803)" inkscape:transform-center-y="5.6301096" inkscape:transform-center-x="-6.1824494">
			<g id="g5469-4-2-9" transform="translate(10.245847,0.02278262)">
				<path id="path4261-6-3-7-3" sodipodi:nodetypes="cccccccccc" inkscape:connector-curvature="0" fill="#FAEBD7" d="
					M132.843,1002.871l1.256,2.659l0.85,8.562l-1.16,1.654l1.816,0.91l1.817-0.909l-1.159-1.783l1.715-9.802l-1.431-7.155
					L132.843,1002.871z"/>
				<path id="path4281-7-8-7-3" sodipodi:nodetypes="casacsc" inkscape:connector-curvature="0" fill="#1E90FF" d="M135,1013.931
					c0,0-1.379,1.108-1.211,1.815c0.423,1.787,4.178,2.725,4.784,2.726c0.606,0-0.684-1.857-1.151-2.725
					c-0.345-0.641-1.211-1.817-1.211-1.817s1.679,1.944,0.468,1.943C135.468,1015.874,135,1013.931,135,1013.931z"/>
			</g>
		</g>
		<path id="path4215-7-3" sodipodi:nodetypes="csscc" inkscape:connector-curvature="0" fill="#1E90FF" d="M88.463,1045.461
			c0,0-9.149,12.693-4.541,15.441c4.773,2.846,4.729-4.387,13.624-3.633c4.103,0.348-3.633-11.809-3.633-11.809H88.463z"/>
		
			<g id="g5461-2" transform="matrix(0.80782482,-0.58942266,0.58942266,0.80782482,-581.53041,335.53635)" inkscape:transform-center-y="5.6952989" inkscape:transform-center-x="-3.9594442">
			
				<path id="path4217-4-7" sodipodi:type="arc" sodipodi:cx="92.5" sodipodi:cy="1034.8622" sodipodi:rx="7.5" sodipodi:ry="7.5" fill="#FAEBD7" d="
				M132.299,973.506c0,1.003-0.813,1.815-1.816,1.816c-1.004,0-1.817-0.813-1.817-1.816c0-1.003,0.814-1.817,1.816-1.816
				C131.485,971.689,132.299,972.503,132.299,973.506z"/>
			<path id="path4239-1-4" sodipodi:nodetypes="ccccccc" inkscape:connector-curvature="0" fill="#FAEBD7" d="M131.39,972.294
				l-1.817,2.12l-1.511-6.102c0.679-2.747,0.124-5.983,1.51-6.908c2.224-0.239,2.725,2.414,2.725,2.414l-2.418,4.493L131.39,972.294
				z"/>
		</g>
	</g>
</g>
<g>
	<path id="path4192_1_" inkscape:connector-curvature="0" fill="#402400" d="M134.618,977.245l-0.908,8.176h10.899l-0.908-8.176
		H134.618z"/>
	
		<path id="path4166_1_" sodipodi:type="arc" sodipodi:cx="125" sodipodi:cy="927.36218" sodipodi:rx="25" sodipodi:ry="25" fill="#FAEBD7" d="
		M143.701,977.247c0,2.508-2.033,4.541-4.541,4.541c-2.508,0-4.542-2.033-4.542-4.541c0-2.51,2.033-4.543,4.542-4.543
		C141.668,972.704,143.701,974.737,143.701,977.247z"/>
	<path id="path4168_1_" sodipodi:nodetypes="cacsc" inkscape:connector-curvature="0" fill="#402400" d="M134.618,977.245
		c0,0,4.094-3.16,6.358-2.725c1.261,0.244,2.725,2.725,2.725,2.725s0-4.541-4.541-4.541
		C134.618,972.704,134.618,977.245,134.618,977.245"/>
	
		<path id="path4170_1_" sodipodi:type="arc" sodipodi:cx="115" sodipodi:cy="927.36218" sodipodi:rx="5.075954" sodipodi:ry="5.075954" fill="#402400" d="
		M138.265,977.247c0,0.508-0.412,0.922-0.921,0.922s-0.923-0.412-0.923-0.92c0-0.002,0-0.002,0-0.002
		c0-0.51,0.412-0.924,0.921-0.924s0.923,0.412,0.923,0.92C138.265,977.245,138.265,977.245,138.265,977.247z"/>
	
		<path id="path4170-4_1_" sodipodi:type="arc" sodipodi:cx="115" sodipodi:cy="927.36218" sodipodi:rx="5.075954" sodipodi:ry="5.075954" fill="#402400" d="
		M141.884,977.247c0,0.508-0.412,0.922-0.921,0.922s-0.922-0.412-0.923-0.92c0-0.002,0-0.002,0-0.002
		c0-0.51,0.412-0.924,0.921-0.924c0.509,0,0.922,0.412,0.923,0.92C141.884,977.245,141.884,977.245,141.884,977.247z"/>
	<path id="path4190_1_" sodipodi:nodetypes="cscc" inkscape:connector-curvature="0" fill="#FF6347" d="M137.343,979.971
		c0,0,0.909,0.908,1.817,0.908s1.816-0.908,1.816-0.908H137.343z"/>
	<rect id="rect4194_1_" x="137.965" y="980.879" fill="#FAEBD7" width="2.544" height="2.725"/>
	<path id="path4196_1_" inkscape:connector-curvature="0" fill="#FAEBD7" d="M136.435,983.604h5.45l-1.816,1.816h-1.816
		L136.435,983.604z"/>
	<path id="path4198_1_" sodipodi:nodetypes="cccccccccccc" inkscape:connector-curvature="0" fill="#80FF80" d="M133.71,983.604
		l-0.908,1.816l3.633,9.082h5.45l2.725-9.082l-0.908-1.816l-0.908-0.908l-0.908,0.908l-1.816,1.816h-1.816l-2.725-2.725
		L133.71,983.604z"/>
	<rect id="rect4213_1_" x="136.435" y="994.502" fill="#008000" width="5.45" height="0.908"/>
	<path id="path4261_1_" sodipodi:nodetypes="cccccccc" inkscape:connector-curvature="0" fill="#FAEBD7" d="M132.737,1010.073
		l2.134,8.205l-1.161,1.656l1.816,0.908l1.816-0.908l-1.159-1.783l1.289-9.959L132.737,1010.073z"/>
	<path id="path4261-4_1_" sodipodi:nodetypes="cccccccc" inkscape:connector-curvature="0" fill="#FAEBD7" d="M143.701,1006.471
		l-1.911,3.781l0.095,1.508l-1.816,0.908l-0.908-0.908l0.908-1.816l-0.065-5.482L143.701,1006.471z"/>
	<path id="path4281-0_1_" sodipodi:nodetypes="casscsc" inkscape:connector-curvature="0" fill="#402400" d="M140.068,1009.944
		c0,0-0.908,1.139-0.908,1.816c0,0.676,0.375,1.527,0.908,1.816c0.533,0.287,1.14-0.232,1.816-0.908c0.908-0.908,0-2.725,0-2.725
		s-0.751,2.391-1.816,1.816C139.003,1011.184,140.068,1009.944,140.068,1009.944z"/>
	<path id="path4215_1_" sodipodi:nodetypes="csscc" inkscape:connector-curvature="0" fill="#80FF80" d="M136.435,995.411
		c0,0-9.149,12.693-4.541,15.441c4.773,2.846,4.729-4.389,13.624-3.635c4.103,0.35-3.633-11.807-3.633-11.807H136.435z"/>
	
		<path id="path4217_1_" sodipodi:type="arc" sodipodi:cx="92.5" sodipodi:cy="1034.8622" sodipodi:rx="7.5" sodipodi:ry="7.5" fill="#FAEBD7" d="
		M135.526,997.227c0,1.004-0.813,1.816-1.816,1.816s-1.816-0.813-1.816-1.816c0-1.002,0.813-1.816,1.816-1.816
		S135.526,996.225,135.526,997.227z"/>
	<path id="path4239_1_" sodipodi:nodetypes="ccccccc" inkscape:connector-curvature="0" fill="#FAEBD7" d="M134.618,996.016
		l-1.816,2.119l-0.908-5.299l0.908-7.416l2.725,2.119l-1.816,5.297L134.618,996.016z"/>
	<path id="path4241_1_" sodipodi:nodetypes="ccccccc" inkscape:connector-curvature="0" fill="#FAEBD7" d="M144.609,985.42
		l-0.908,2.725l0.908,1.816v2.725l0.909,0.908l1.816-3.633L144.609,985.42z"/>
	
		<path id="path4217-5_1_" sodipodi:type="arc" sodipodi:cx="92.5" sodipodi:cy="1034.8622" sodipodi:rx="7.5" sodipodi:ry="7.5" fill="#FAEBD7" d="
		M146.426,993.188c0,0.779-0.61,1.412-1.362,1.412c-0.752,0-1.363-0.633-1.363-1.412s0.61-1.41,1.363-1.41
		C145.815,991.778,146.426,992.409,146.426,993.188z"/>
	<path id="path4281_1_" sodipodi:nodetypes="casacsc" inkscape:connector-curvature="0" fill="#402400" d="M134.921,1018.118
		c0,0-1.211,1.088-1.211,1.816c0,1.092,1.211,2.725,1.816,2.725s1.816-1.633,1.816-2.725c0-0.729-1.211-1.816-1.211-1.816
		s0.605,1.816-0.605,1.816S134.921,1018.118,134.921,1018.118z"/>
</g>
<g>
	<path id="path4192-9_1_" inkscape:connector-curvature="0" fill="#402400" d="M143.313,1027.269l0.908,8.174h-10.899l0.908-8.174
		H143.313z"/>
	
		<path id="path4166-5_1_" sodipodi:type="arc" sodipodi:cx="125" sodipodi:cy="927.36218" sodipodi:rx="25" sodipodi:ry="25" fill="#FAEBD7" d="
		M134.23,1027.269c0,2.508,2.033,4.541,4.541,4.541c2.508,0,4.542-2.033,4.542-4.541s-2.033-4.541-4.542-4.541
		C136.263,1022.728,134.23,1024.761,134.23,1027.269z"/>
	<path id="path4168-4_1_" sodipodi:nodetypes="cacsc" inkscape:connector-curvature="0" fill="#402400" d="M143.313,1027.269
		c0,0-4.094-3.162-6.358-2.725c-1.261,0.242-2.725,2.725-2.725,2.725s0-4.541,4.541-4.541
		C143.313,1022.728,143.313,1027.269,143.313,1027.269"/>
	
		<path id="path4170-2_1_" sodipodi:type="arc" sodipodi:cx="115" sodipodi:cy="927.36218" sodipodi:rx="5.075954" sodipodi:ry="5.075954" fill="#402400" d="
		M139.666,1027.269c0,0.51,0.412,0.922,0.921,0.922c0.509,0.002,0.923-0.41,0.923-0.92v-0.002c0-0.51-0.412-0.922-0.921-0.924
		c-0.509,0-0.923,0.412-0.923,0.922C139.666,1027.267,139.666,1027.267,139.666,1027.269z"/>
	
		<path id="path4170-4-6_1_" sodipodi:type="arc" sodipodi:cx="115" sodipodi:cy="927.36218" sodipodi:rx="5.075954" sodipodi:ry="5.075954" fill="#402400" d="
		M136.046,1027.269c0,0.51,0.412,0.922,0.921,0.922c0.509,0.002,0.923-0.41,0.923-0.92v-0.002c0-0.51-0.412-0.922-0.921-0.924
		c-0.509,0-0.923,0.412-0.923,0.922C136.046,1027.267,136.046,1027.267,136.046,1027.269z"/>
	<path id="path4190-6_1_" sodipodi:nodetypes="cscc" inkscape:connector-curvature="0" fill="#FF6347" d="M140.588,1029.994
		c0,0-0.908,0.908-1.817,0.908c-0.908,0-1.816-0.908-1.816-0.908H140.588z"/>
	<rect id="rect4194-8_1_" x="137.421" y="1030.902" fill="#FAEBD7" width="2.545" height="2.725"/>
	<path id="path4196-6_1_" inkscape:connector-curvature="0" fill="#FAEBD7" d="M141.496,1033.626h-5.45l1.816,1.816h1.817
		L141.496,1033.626z"/>
	<path id="path4198-3_1_" sodipodi:nodetypes="cccccccccccc" inkscape:connector-curvature="0" fill="#80FF80" d="M144.221,1033.626
		l0.908,1.816l-3.633,9.082h-5.45l-2.725-9.082l0.908-1.816l0.908-0.908l0.908,0.908l1.816,1.816h1.817l2.725-2.725
		L144.221,1033.626z"/>
	<rect id="rect4213-0_1_" x="136.046" y="1044.525" fill="#008000" width="5.45" height="0.908"/>
	<path id="path4261-41_1_" sodipodi:nodetypes="cccccccc" inkscape:connector-curvature="0" fill="#FAEBD7" d="M145.194,1060.095
		l-2.134,8.207l1.161,1.654l-1.816,0.908l-1.816-0.908l1.159-1.783l-1.289-9.959L145.194,1060.095z"/>
	<path id="path4261-4-1_1_" sodipodi:nodetypes="cccccccc" inkscape:connector-curvature="0" fill="#FAEBD7" d="M134.23,1056.496
		l1.911,3.779l-0.095,1.508l1.816,0.908l0.908-0.908l-0.908-1.816l0.065-5.482L134.23,1056.496z"/>
	<path id="path4281-0-9_1_" sodipodi:nodetypes="casscsc" inkscape:connector-curvature="0" fill="#402400" d="M137.863,1059.966
		c0,0,0.908,1.139,0.908,1.816s-0.375,1.529-0.908,1.816s-1.14-0.23-1.816-0.908c-0.908-0.908,0-2.725,0-2.725
		s0.751,2.393,1.816,1.816S137.863,1059.966,137.863,1059.966z"/>
	<path id="path4215-5_1_" sodipodi:nodetypes="csscc" inkscape:connector-curvature="0" fill="#80FF80" d="M141.496,1045.433
		c0,0,9.149,12.693,4.541,15.441c-4.773,2.846-4.729-4.387-13.624-3.633c-4.104,0.348,3.633-11.809,3.633-11.809H141.496z"/>
	
		<path id="path4217-0_1_" sodipodi:type="arc" sodipodi:cx="92.5" sodipodi:cy="1034.8622" sodipodi:rx="7.5" sodipodi:ry="7.5" fill="#FAEBD7" d="
		M142.404,1047.251c0,1.002,0.813,1.816,1.816,1.816c1.003,0,1.816-0.814,1.816-1.816c0-1.004-0.813-1.818-1.816-1.818
		C143.218,1045.433,142.404,1046.248,142.404,1047.251z"/>
	<path id="path4239-3_1_" sodipodi:nodetypes="ccccccc" inkscape:connector-curvature="0" fill="#FAEBD7" d="M143.313,1046.039
		l1.816,2.119l0.908-5.297l-0.908-7.418l-2.725,2.119l1.816,5.299L143.313,1046.039z"/>
	<path id="path4241-6_1_" sodipodi:nodetypes="ccccccc" inkscape:connector-curvature="0" fill="#FAEBD7" d="M133.322,1035.443
		l0.908,2.725l-0.908,1.816v2.725l-0.908,0.908l-1.817-3.633L133.322,1035.443z"/>
	
		<path id="path4217-5-2_1_" sodipodi:type="arc" sodipodi:cx="92.5" sodipodi:cy="1034.8622" sodipodi:rx="7.5" sodipodi:ry="7.5" fill="#FAEBD7" d="
		M131.505,1043.212c0,0.779,0.61,1.41,1.363,1.41s1.362-0.631,1.362-1.41s-0.61-1.412-1.362-1.412
		S131.505,1042.433,131.505,1043.212z"/>
	<path id="path4281-2_1_" sodipodi:nodetypes="casacsc" inkscape:connector-curvature="0" fill="#402400" d="M143.01,1068.14
		c0,0,1.211,1.09,1.211,1.816c0,1.092-1.211,2.725-1.816,2.725s-1.816-1.633-1.816-2.725c0-0.727,1.211-1.816,1.211-1.816
		s-0.605,1.816,0.605,1.816S143.01,1068.14,143.01,1068.14z"/>
</g>
<g id="g4961_1_" transform="translate(-50.357143,0)">
	
		<path id="path4166-1_1_" sodipodi:type="arc" sodipodi:cx="125" sodipodi:cy="927.36218" sodipodi:rx="25" sodipodi:ry="25" fill="#FAEBD7" d="
		M244.058,977.269c0,2.508-2.033,4.541-4.541,4.541c-2.508,0-4.542-2.033-4.542-4.541c0-2.51,2.033-4.543,4.542-4.543
		C242.025,972.726,244.058,974.759,244.058,977.269z"/>
	<path id="path4168-40_1_" sodipodi:nodetypes="cacsc" inkscape:connector-curvature="0" fill="#B8860B" d="M234.975,977.267
		c0,0,4.094-3.16,6.358-2.725c1.261,0.244,2.725,2.725,2.725,2.725s0-4.541-4.541-4.541
		C234.975,972.726,234.975,977.267,234.975,977.267"/>
	<rect id="rect4194-6_1_" x="238.609" y="980.902" fill="#FAEBD7" width="1.816" height="2.725"/>
	<path id="path4196-1_1_" inkscape:connector-curvature="0" fill="#FAEBD7" d="M236.792,983.626h5.45l-1.816,1.816h-1.816
		L236.792,983.626z"/>
	<path id="path4198-8_1_" sodipodi:nodetypes="cccccccccccc" inkscape:connector-curvature="0" fill="#1E90FF" d="M234.067,983.626
		l-0.908,1.816l3.633,9.082h5.45l2.725-9.082l-0.908-1.816l-0.908-0.908l-0.908,0.908l-1.816,1.816h-1.816l-2.725-2.725
		L234.067,983.626z"/>
	<rect id="rect4213-3_1_" x="236.792" y="994.525" fill="#FFFF00" width="5.45" height="0.908"/>
	<path id="path4261-9_1_" sodipodi:nodetypes="cccccccc" inkscape:connector-curvature="0" fill="#FAEBD7" d="M233.094,1010.095
		l2.134,8.205l-1.161,1.656l1.816,0.908l1.816-0.908l-1.159-1.783l1.289-9.959L233.094,1010.095z"/>
	<path id="path4261-4-8_1_" sodipodi:nodetypes="cccccccc" inkscape:connector-curvature="0" fill="#FAEBD7" d="M244.058,1006.494
		l-1.911,3.781l0.095,1.508l-1.816,0.908l-0.908-0.908l0.908-1.816l-0.065-5.482L244.058,1006.494z"/>
	<path id="path4281-0-0_1_" sodipodi:nodetypes="casscsc" inkscape:connector-curvature="0" fill="#1E90FF" d="M240.425,1009.966
		c0,0-0.908,1.139-0.908,1.816c0,0.676,0.375,1.527,0.908,1.816c0.533,0.287,1.14-0.232,1.816-0.908c0.908-0.908,0-2.725,0-2.725
		s-0.082,1.23-1.191,1.057C239.853,1010.835,240.425,1009.966,240.425,1009.966z"/>
	
		<path id="path4217-58_1_" sodipodi:type="arc" sodipodi:cx="92.5" sodipodi:cy="1034.8622" sodipodi:rx="7.5" sodipodi:ry="7.5" fill="#FAEBD7" d="
		M235.884,997.25c0,1.004-0.813,1.816-1.816,1.816s-1.816-0.813-1.816-1.816s0.813-1.816,1.816-1.816
		S235.884,996.246,235.884,997.25z"/>
	<path id="path4239-4_1_" sodipodi:nodetypes="ccccccc" inkscape:connector-curvature="0" fill="#FAEBD7" d="M234.975,996.039
		l-1.816,2.119l-0.908-5.299l0.908-7.416l2.725,2.119l-1.816,5.297L234.975,996.039z"/>
	<path id="path4241-8_1_" sodipodi:nodetypes="ccccccc" inkscape:connector-curvature="0" fill="#FAEBD7" d="M244.966,985.443
		l-0.908,2.725l0.908,1.816v2.725l0.909,0.908l1.816-3.633L244.966,985.443z"/>
	
		<path id="path4217-5-8_1_" sodipodi:type="arc" sodipodi:cx="92.5" sodipodi:cy="1034.8622" sodipodi:rx="7.5" sodipodi:ry="7.5" fill="#FAEBD7" d="
		M246.783,993.21c0,0.779-0.61,1.412-1.362,1.412c-0.752,0-1.363-0.633-1.363-1.412s0.61-1.41,1.363-1.41
		C246.173,991.8,246.783,992.431,246.783,993.21z"/>
	<path id="path4281-3_1_" sodipodi:nodetypes="casacsc" inkscape:connector-curvature="0" fill="#1E90FF" d="M235.278,1018.14
		c0,0-1.211,1.088-1.211,1.816c0,1.092,1.211,2.725,1.816,2.725s1.816-1.633,1.816-2.725c0-0.729-1.211-1.816-1.211-1.816
		s0.65,0.744-0.561,0.744S235.278,1018.14,235.278,1018.14z"/>
	<path id="path4192-2_1_" sodipodi:nodetypes="ccscccccc" inkscape:connector-curvature="0" fill="#B8860B" d="M234.975,977.267
		l-0.64,7.551c0,0,2.857,2.428,5.896,2.945c5.04,0.859,4.735-2.32,4.735-2.32l-0.908-8.176l-0.667-1.918l-1.292-1.385l-2.762-0.268
		L234.975,977.267z"/>
	<path id="path4215-4_1_" sodipodi:nodetypes="csscc" inkscape:connector-curvature="0" fill="#1E90FF" d="M236.792,995.433
		c0,0-9.149,12.693-4.541,15.441c4.773,2.846,4.729-4.389,13.624-3.635c4.103,0.35-3.633-11.807-3.633-11.807H236.792z"/>
	
		<path id="path4166-1-9_1_" sodipodi:type="arc" sodipodi:cx="125" sodipodi:cy="927.36218" sodipodi:rx="25" sodipodi:ry="25" fill="#FAEBD7" d="
		M244.058,977.269c0,2.508-2.033,4.541-4.541,4.541c-2.508,0-4.542-2.033-4.542-4.541c0-2.51,2.033-4.543,4.542-4.543
		C242.025,972.726,244.058,974.759,244.058,977.269z"/>
	<path id="path4168-40-1_1_" sodipodi:nodetypes="cacsc" inkscape:connector-curvature="0" fill="#402400" d="M234.975,977.267
		c0,0,4.094-3.16,6.358-2.725c1.261,0.244,2.725,2.725,2.725,2.725s0-4.541-4.541-4.541
		C234.975,972.726,234.975,977.267,234.975,977.267"/>
	<rect id="rect4194-6-7_1_" x="238.609" y="980.902" fill="#FAEBD7" width="1.816" height="2.725"/>
	<path id="path4196-1-6_1_" inkscape:connector-curvature="0" fill="#FAEBD7" d="M236.792,983.626h5.45l-1.816,1.816h-1.816
		L236.792,983.626z"/>
	<path id="path4198-8-8_1_" sodipodi:nodetypes="cccccccccccc" inkscape:connector-curvature="0" fill="#80FF80" d="
		M234.067,983.626l-0.908,1.816l3.633,9.082h5.45l2.725-9.082l-0.908-1.816l-0.908-0.908l-0.908,0.908l-1.816,1.816h-1.816
		l-2.725-2.725L234.067,983.626z"/>
	<rect id="rect4213-3-5_1_" x="236.792" y="994.525" fill="#008000" width="5.45" height="0.908"/>
	<path id="path4261-9-2_1_" sodipodi:nodetypes="cccccccc" inkscape:connector-curvature="0" fill="#FAEBD7" d="M233.094,1010.095
		l2.134,8.205l-1.161,1.656l1.816,0.908l1.816-0.908l-1.159-1.783l1.289-9.959L233.094,1010.095z"/>
	<path id="path4261-4-8-7_1_" sodipodi:nodetypes="cccccccc" inkscape:connector-curvature="0" fill="#FAEBD7" d="M244.058,1006.494
		l-1.911,3.781l0.095,1.508l-1.816,0.908l-0.908-0.908l0.908-1.816l-0.065-5.482L244.058,1006.494z"/>
	<path id="path4281-0-0-5_1_" sodipodi:nodetypes="casscsc" inkscape:connector-curvature="0" fill="#402400" d="M240.425,1009.966
		c0,0-0.908,1.139-0.908,1.816c0,0.676,0.375,1.527,0.908,1.816c0.533,0.287,1.14-0.232,1.816-0.908c0.908-0.908,0-2.725,0-2.725
		s-0.082,1.23-1.191,1.057C239.853,1010.835,240.425,1009.966,240.425,1009.966z"/>
	
		<path id="path4217-58-7_1_" sodipodi:type="arc" sodipodi:cx="92.5" sodipodi:cy="1034.8622" sodipodi:rx="7.5" sodipodi:ry="7.5" fill="#FAEBD7" d="
		M235.884,997.25c0,1.004-0.813,1.816-1.816,1.816s-1.816-0.813-1.816-1.816s0.813-1.816,1.816-1.816
		S235.884,996.246,235.884,997.25z"/>
	<path id="path4239-4-9_1_" sodipodi:nodetypes="ccccccc" inkscape:connector-curvature="0" fill="#FAEBD7" d="M234.975,996.039
		l-1.816,2.119l-0.908-5.299l0.908-7.416l2.725,2.119l-1.816,5.297L234.975,996.039z"/>
	<path id="path4241-8-3_1_" sodipodi:nodetypes="ccccccc" inkscape:connector-curvature="0" fill="#FAEBD7" d="M244.966,985.443
		l-0.908,2.725l0.908,1.816v2.725l0.909,0.908l1.816-3.633L244.966,985.443z"/>
	
		<path id="path4217-5-8-7_1_" sodipodi:type="arc" sodipodi:cx="92.5" sodipodi:cy="1034.8622" sodipodi:rx="7.5" sodipodi:ry="7.5" fill="#FAEBD7" d="
		M246.783,993.21c0,0.779-0.61,1.412-1.362,1.412c-0.752,0-1.363-0.633-1.363-1.412s0.61-1.41,1.363-1.41
		C246.173,991.8,246.783,992.431,246.783,993.21z"/>
	<path id="path4281-3-5_1_" sodipodi:nodetypes="casacsc" inkscape:connector-curvature="0" fill="#402400" d="M235.278,1018.14
		c0,0-1.211,1.088-1.211,1.816c0,1.092,1.211,2.725,1.816,2.725s1.816-1.633,1.816-2.725c0-0.729-1.211-1.816-1.211-1.816
		s0.65,0.744-0.561,0.744S235.278,1018.14,235.278,1018.14z"/>
	<path id="path4192-2-1_1_" sodipodi:nodetypes="ccscccccc" inkscape:connector-curvature="0" fill="#402400" d="M234.975,977.267
		l-0.64,7.551c0,0,2.857,2.428,5.896,2.945c5.04,0.859,4.735-2.32,4.735-2.32l-0.908-8.176l-0.667-1.918l-1.292-1.385l-2.762-0.268
		L234.975,977.267z"/>
	<path id="path4215-4-7_1_" sodipodi:nodetypes="csscc" inkscape:connector-curvature="0" fill="#80FF80" d="M236.792,995.433
		c0,0-9.149,12.693-4.541,15.441c4.773,2.846,4.729-4.389,13.624-3.635c4.103,0.35-3.633-11.807-3.633-11.807H236.792z"/>
</g>
<g id="g4961-2_1_" transform="matrix(-1,0,0,1,199.64285,49.977216)">
	
		<path id="path4166-1-4_1_" sodipodi:type="arc" sodipodi:cx="125" sodipodi:cy="927.36218" sodipodi:rx="25" sodipodi:ry="25" fill="#FAEBD7" d="
		M15.413,977.292c0,2.508-2.033,4.541-4.541,4.541c-2.508,0-4.542-2.033-4.542-4.541s2.033-4.541,4.542-4.541
		C13.38,972.751,15.413,974.784,15.413,977.292z"/>
	<path id="path4168-40-9_1_" sodipodi:nodetypes="cacsc" inkscape:connector-curvature="0" fill="#B8860B" d="M6.33,977.292
		c0,0,4.094-3.162,6.358-2.725c1.261,0.242,2.725,2.725,2.725,2.725s0-4.541-4.541-4.541C6.33,972.751,6.33,977.292,6.33,977.292"/>
	<rect id="rect4194-6-9_1_" x="9.963" y="983.649" fill="#FAEBD7" width="1.817" height="-2.725"/>
	<path id="path4196-1-9_1_" inkscape:connector-curvature="0" fill="#FAEBD7" d="M8.147,983.649h5.45l-1.816,1.816H9.963
		L8.147,983.649z"/>
	<path id="path4198-8-2_1_" sodipodi:nodetypes="cccccccccccc" inkscape:connector-curvature="0" fill="#1E90FF" d="M5.422,983.649
		l-0.908,1.816l3.633,9.082h5.45l2.725-9.082l-0.908-1.816l-0.908-0.908l-0.908,0.908l-1.816,1.816H9.963l-2.725-2.725
		L5.422,983.649z"/>
	<rect id="rect4213-3-6_1_" x="8.147" y="995.456" fill="#FFFF00" width="5.45" height="-0.908"/>
	<path id="path4261-9-1_1_" sodipodi:nodetypes="cccccccc" inkscape:connector-curvature="0" fill="#FAEBD7" d="M4.449,1010.118
		l2.134,8.207l-1.161,1.654l1.816,0.908l1.816-0.908l-1.159-1.783l1.289-9.959L4.449,1010.118z"/>
	<path id="path4261-4-8-9_1_" sodipodi:nodetypes="cccccccc" inkscape:connector-curvature="0" fill="#FAEBD7" d="M15.413,1006.518
		l-1.911,3.779l0.095,1.508l-1.816,0.908l-0.908-0.908l0.908-1.816l-0.065-5.482L15.413,1006.518z"/>
	<path id="path4281-0-0-0_1_" sodipodi:nodetypes="casscsc" inkscape:connector-curvature="0" fill="#1E90FF" d="M11.78,1009.989
		c0,0-0.908,1.139-0.908,1.816s0.375,1.529,0.908,1.816s1.14-0.23,1.816-0.908c0.908-0.908,0-2.725,0-2.725s-0.082,1.23-1.191,1.057
		C11.208,1010.86,11.78,1009.989,11.78,1009.989z"/>
	
		<path id="path4217-58-4_1_" sodipodi:type="arc" sodipodi:cx="92.5" sodipodi:cy="1034.8622" sodipodi:rx="7.5" sodipodi:ry="7.5" fill="#FAEBD7" d="
		M7.238,997.274c0,1.002-0.813,1.816-1.816,1.816s-1.816-0.814-1.816-1.816c0-1.004,0.813-1.818,1.816-1.818
		S7.238,996.27,7.238,997.274z"/>
	<path id="path4239-4-4_1_" sodipodi:nodetypes="ccccccc" inkscape:connector-curvature="0" fill="#FAEBD7" d="M6.33,996.061
		l-1.816,2.121l-0.908-5.299l0.908-7.418l2.725,2.119l-1.816,5.299L6.33,996.061z"/>
	<path id="path4241-8-8_1_" sodipodi:nodetypes="ccccccc" inkscape:connector-curvature="0" fill="#FAEBD7" d="M16.321,985.466
		l-0.908,2.725l0.908,1.816v2.725l0.908,0.908l1.817-3.633L16.321,985.466z"/>
	
		<path id="path4217-5-8-3_1_" sodipodi:type="arc" sodipodi:cx="92.5" sodipodi:cy="1034.8622" sodipodi:rx="7.5" sodipodi:ry="7.5" fill="#FAEBD7" d="
		M18.138,993.235c0,0.779-0.61,1.41-1.363,1.41s-1.362-0.631-1.362-1.41s0.61-1.412,1.362-1.412S18.138,992.456,18.138,993.235z"/>
	<path id="path4281-3-7_1_" sodipodi:nodetypes="casacsc" inkscape:connector-curvature="0" fill="#1E90FF" d="M6.633,1018.163
		c0,0-1.211,1.09-1.211,1.816c0,1.092,1.211,2.725,1.816,2.725s1.816-1.633,1.816-2.725c0-0.727-1.211-1.816-1.211-1.816
		s0.65,0.746-0.561,0.746C6.072,1018.909,6.633,1018.163,6.633,1018.163z"/>
	<path id="path4192-2-2_1_" sodipodi:nodetypes="ccscccccc" inkscape:connector-curvature="0" fill="#B8860B" d="M6.33,977.292
		l-0.641,7.549c0,0,2.857,2.43,5.896,2.947c5.04,0.857,4.735-2.322,4.735-2.322l-0.908-8.174l-0.667-1.92l-1.292-1.385l-2.762-0.268
		L6.33,977.292z"/>
	<path id="path4215-4-1_1_" sodipodi:nodetypes="csscc" inkscape:connector-curvature="0" fill="#1E90FF" d="M8.147,995.456
		c0,0-9.149,12.693-4.541,15.441c4.773,2.846,4.729-4.387,13.624-3.633c4.104,0.348-3.633-11.809-3.633-11.809H8.147z"/>
	
		<path id="path4166-1-9-7_1_" sodipodi:type="arc" sodipodi:cx="125" sodipodi:cy="927.36218" sodipodi:rx="25" sodipodi:ry="25" fill="#FAEBD7" d="
		M15.413,977.292c0,2.508-2.033,4.541-4.541,4.541c-2.508,0-4.542-2.033-4.542-4.541s2.033-4.541,4.542-4.541
		C13.38,972.751,15.413,974.784,15.413,977.292z"/>
	<path id="path4168-40-1-9_1_" sodipodi:nodetypes="cacsc" inkscape:connector-curvature="0" fill="#402400" d="M6.33,977.292
		c0,0,4.094-3.162,6.358-2.725c1.261,0.242,2.725,2.725,2.725,2.725s0-4.541-4.541-4.541C6.33,972.751,6.33,977.292,6.33,977.292"/>
	<rect id="rect4194-6-7-9_1_" x="9.963" y="983.649" fill="#FAEBD7" width="1.817" height="-2.725"/>
	<path id="path4196-1-6-2_1_" inkscape:connector-curvature="0" fill="#FAEBD7" d="M8.147,983.649h5.45l-1.816,1.816H9.963
		L8.147,983.649z"/>
	<path id="path4198-8-8-3_1_" sodipodi:nodetypes="cccccccccccc" inkscape:connector-curvature="0" fill="#80FF80" d="
		M5.422,983.649l-0.908,1.816l3.633,9.082h5.45l2.725-9.082l-0.908-1.816l-0.908-0.908l-0.908,0.908l-1.816,1.816H9.963
		l-2.725-2.725L5.422,983.649z"/>
	<rect id="rect4213-3-5-5_1_" x="8.147" y="995.456" fill="#008000" width="5.45" height="-0.908"/>
	<path id="path4261-9-2-3_1_" sodipodi:nodetypes="cccccccc" inkscape:connector-curvature="0" fill="#FAEBD7" d="M4.449,1010.118
		l2.134,8.207l-1.161,1.654l1.816,0.908l1.816-0.908l-1.159-1.783l1.289-9.959L4.449,1010.118z"/>
	<path id="path4261-4-8-7-4_1_" sodipodi:nodetypes="cccccccc" inkscape:connector-curvature="0" fill="#FAEBD7" d="
		M15.413,1006.518l-1.911,3.779l0.095,1.508l-1.816,0.908l-0.908-0.908l0.908-1.816l-0.065-5.482L15.413,1006.518z"/>
	<path id="path4281-0-0-5-9_1_" sodipodi:nodetypes="casscsc" inkscape:connector-curvature="0" fill="#402400" d="M11.78,1009.989
		c0,0-0.908,1.139-0.908,1.816s0.375,1.529,0.908,1.816s1.14-0.23,1.816-0.908c0.908-0.908,0-2.725,0-2.725s-0.082,1.23-1.191,1.057
		C11.208,1010.86,11.78,1009.989,11.78,1009.989z"/>
	
		<path id="path4217-58-7-8_1_" sodipodi:type="arc" sodipodi:cx="92.5" sodipodi:cy="1034.8622" sodipodi:rx="7.5" sodipodi:ry="7.5" fill="#FAEBD7" d="
		M7.238,997.274c0,1.002-0.813,1.816-1.816,1.816s-1.816-0.814-1.816-1.816c0-1.004,0.813-1.818,1.816-1.818
		S7.238,996.27,7.238,997.274z"/>
	<path id="path4239-4-9-6_1_" sodipodi:nodetypes="ccccccc" inkscape:connector-curvature="0" fill="#FAEBD7" d="M6.33,996.061
		l-1.816,2.121l-0.908-5.299l0.908-7.418l2.725,2.119l-1.816,5.299L6.33,996.061z"/>
	<path id="path4241-8-3-4_1_" sodipodi:nodetypes="ccccccc" inkscape:connector-curvature="0" fill="#FAEBD7" d="M16.321,985.466
		l-0.908,2.725l0.908,1.816v2.725l0.908,0.908l1.817-3.633L16.321,985.466z"/>
	
		<path id="path4217-5-8-7-7_1_" sodipodi:type="arc" sodipodi:cx="92.5" sodipodi:cy="1034.8622" sodipodi:rx="7.5" sodipodi:ry="7.5" fill="#FAEBD7" d="
		M18.138,993.235c0,0.779-0.61,1.41-1.363,1.41s-1.362-0.631-1.362-1.41s0.61-1.412,1.362-1.412S18.138,992.456,18.138,993.235z"/>
	<path id="path4281-3-5-6_1_" sodipodi:nodetypes="casacsc" inkscape:connector-curvature="0" fill="#402400" d="M6.633,1018.163
		c0,0-1.211,1.09-1.211,1.816c0,1.092,1.211,2.725,1.816,2.725s1.816-1.633,1.816-2.725c0-0.727-1.211-1.816-1.211-1.816
		s0.65,0.746-0.561,0.746C6.072,1018.909,6.633,1018.163,6.633,1018.163z"/>
	<path id="path4192-2-1-8_1_" sodipodi:nodetypes="ccscccccc" inkscape:connector-curvature="0" fill="#402400" d="M6.33,977.292
		l-0.641,7.549c0,0,2.857,2.43,5.896,2.947c5.04,0.857,4.735-2.322,4.735-2.322l-0.908-8.174l-0.667-1.92l-1.292-1.385l-2.762-0.268
		L6.33,977.292z"/>
	<path id="path4215-4-7-1_1_" sodipodi:nodetypes="csscc" inkscape:connector-curvature="0" fill="#80FF80" d="M8.147,995.456
		c0,0-9.149,12.693-4.541,15.441c4.773,2.846,4.729-4.387,13.624-3.633c4.104,0.348-3.633-11.809-3.633-11.809H8.147z"/>
</g>
<g id="g5640_1_" transform="translate(-50.357143,0)">
	
		<g id="g5536_1_" transform="matrix(-0.77014995,0.63786288,0.63786288,0.77014995,-299.37565,107.36639)" inkscape:transform-center-y="3.6061132" inkscape:transform-center-x="-3.9861647">
		<path id="path4241-3_1_" sodipodi:nodetypes="ccccccc" inkscape:connector-curvature="0" fill="#FAEBD7" d="M105.667,1053.31
			l-1.143,1.593l1.143,2.948l-0.001,2.724l0.909,0.909l1.817-3.632L105.667,1053.31z"/>
		
			<path id="path4217-5-9_1_" sodipodi:type="arc" sodipodi:cx="92.5" sodipodi:cy="1034.8622" sodipodi:rx="7.5" sodipodi:ry="7.5" fill="#FAEBD7" d="
			M107.484,1061.079c0,0.779-0.61,1.411-1.363,1.41c-0.753,0-1.362-0.631-1.362-1.41c-0.001-0.781,0.61-1.411,1.362-1.412
			C106.873,1059.668,107.483,1060.299,107.484,1061.079z"/>
	</g>
	<path id="path4192-29_1_" sodipodi:nodetypes="ccacc" inkscape:connector-curvature="0" fill="#402400" d="M284.662,977.035
		l-0.908,8.176c0,0,3.477,2.949,5.255,2.262c3.563-1.379,4.735-10.438,4.735-10.438H284.662z"/>
	
		<path id="path4166-6_1_" sodipodi:type="arc" sodipodi:cx="125" sodipodi:cy="927.36218" sodipodi:rx="25" sodipodi:ry="25" fill="#FAEBD7" d="
		M293.744,977.037c0,2.508-2.033,4.541-4.541,4.541c-2.508,0-4.542-2.033-4.542-4.541c0-2.51,2.033-4.543,4.542-4.543
		C291.711,972.494,293.744,974.527,293.744,977.037z"/>
	<path id="path4168-3_1_" sodipodi:nodetypes="cacsc" inkscape:connector-curvature="0" fill="#402400" d="M284.662,977.035
		c0,0,4.094-3.16,6.358-2.725c1.261,0.244,2.725,2.725,2.725,2.725s0-4.541-4.541-4.541
		C284.662,972.494,284.662,977.035,284.662,977.035"/>
	
		<path id="path4170-4-8_1_" sodipodi:type="arc" sodipodi:cx="115" sodipodi:cy="927.36218" sodipodi:rx="5.075954" sodipodi:ry="5.075954" fill="#402400" d="
		M291.928,977.037c0,0.508-0.413,0.922-0.922,0.922s-0.922-0.414-0.922-0.922c0-0.51,0.413-0.924,0.922-0.924
		S291.928,976.527,291.928,977.037z"/>
	<g>
		<defs>
			<circle id="SVGID_5_" cx="289.203" cy="977.037" r="4.541"/>
		</defs>
		<clipPath id="SVGID_6_">
			<use xlink:href="#SVGID_5_"  overflow="visible"/>
		</clipPath>
		
			<path id="path4190-9_1_" sodipodi:nodetypes="cscc" inkscape:connector-curvature="0" clip-path="url(#SVGID_6_)" fill="#FF6347" d="
			M290.417,979.761c0,0,0.908,0.908,1.816,0.908s1.816-0.908,1.816-0.908H290.417z"/>
	</g>
	<rect id="rect4194-3_1_" x="288.029" y="980.669" fill="#FAEBD7" width="2.349" height="2.725"/>
	<path id="path4198-32_1_" sodipodi:nodetypes="cccccc" inkscape:connector-curvature="0" fill="#80FF80" d="M286.009,989.472
		l0.469,4.82h5.45l2.081-5.82c0-3-3.225-5.969-5-6C285.9,982.607,285.101,987.499,286.009,989.472z"/>
	<rect id="rect4213-9_1_" x="286.478" y="994.292" fill="#008000" width="5.45" height="0.908"/>
	<g id="g5501_1_" transform="matrix(0.93907649,-0.34370824,0.34370824,0.93907649,-329.30313,124.57595)">
		<g id="g5469-4_1_" transform="translate(10.245847,0.02278262)">
			<path id="path4261-6-3_1_" sodipodi:nodetypes="cccccccc" inkscape:connector-curvature="0" fill="#FAEBD7" d="M268.155,1044.046
				l2.903,11.984l-1.161,1.655l1.817,0.908l1.816-0.908l-1.159-1.782l1.289-9.961L268.155,1044.046z"/>
			<path id="path4281-7-8_1_" sodipodi:nodetypes="casacsc" inkscape:connector-curvature="0" fill="#402400" d="M271.107,1055.869
				c0,0-1.379,1.107-1.211,1.815c0.423,1.787,4.178,2.725,4.784,2.726c0.606-0.001-0.683-1.858-1.151-2.726
				c-0.345-0.64-1.211-1.816-1.211-1.816s1.679,1.942,0.468,1.943C271.575,1057.812,271.107,1055.869,271.107,1055.869z"/>
		</g>
	</g>
	<g id="g5501-6_1_" transform="matrix(0.81034494,0.58595315,-0.58595315,0.81034494,601.7964,81.833844)">
		<g id="g5469-4-2_1_" transform="translate(10.245847,0.02278262)">
			<path id="path4261-6-3-7_1_" sodipodi:nodetypes="cccccccccc" inkscape:connector-curvature="0" fill="#FAEBD7" d="
				M272.969,936.23l1.256,2.659l0.849,8.562l-1.16,1.656l1.816,0.909l1.816-0.909l-1.16-1.784l1.716-9.8l-1.431-7.155
				L272.969,936.23z"/>
			<path id="path4281-7-8-7_1_" sodipodi:nodetypes="casacsc" inkscape:connector-curvature="0" fill="#402400" d="M275.125,947.291
				c0,0-1.379,1.108-1.211,1.816c0.423,1.786,4.178,2.725,4.784,2.725c0.605-0.001-0.684-1.858-1.151-2.725
				c-0.344-0.64-1.211-1.816-1.211-1.816s1.679,1.943,0.467,1.942C275.593,949.233,275.125,947.291,275.125,947.291z"/>
		</g>
	</g>
	<path id="path4215-7_1_" sodipodi:nodetypes="csscc" inkscape:connector-curvature="0" fill="#80FF80" d="M291.996,995.201
		c0,0,9.149,12.693,4.542,15.441c-4.773,2.846-4.729-4.389-13.624-3.635c-4.103,0.35,3.633-11.807,3.633-11.807H291.996z"/>
	
		<g id="g5461_1_" transform="matrix(0.84183706,0.53973176,-0.53973176,0.84183706,552.60417,61.026479)" inkscape:transform-center-y="5.6332286" inkscape:transform-center-x="3.9021039">
		
			<path id="path4217-4_1_" sodipodi:type="arc" sodipodi:cx="92.5" sodipodi:cy="1034.8622" sodipodi:rx="7.5" sodipodi:ry="7.5" fill="#FAEBD7" d="
			M278.392,932.303c0,1.003-0.813,1.816-1.816,1.816c-1.003,0-1.817-0.814-1.817-1.817c0-1.003,0.813-1.816,1.816-1.816
			C277.578,930.486,278.392,931.3,278.392,932.303z"/>
		<path id="path4239-1_1_" sodipodi:nodetypes="ccccccc" inkscape:connector-curvature="0" fill="#FAEBD7" d="M277.484,931.091
			l-1.817,2.118l-1.51-6.101c0.677-2.747,0.123-5.984,1.511-6.908c2.223-0.238,2.725,2.413,2.725,2.413l-2.419,4.495
			L277.484,931.091z"/>
	</g>
</g>
<g>
	
		<g id="g5536-3_1_" transform="matrix(-0.73787301,-0.67493957,-0.67493957,0.73787301,910.79157,426.82153)" inkscape:transform-center-y="4.3590093" inkscape:transform-center-x="3.1211115">
		<path id="path4241-3-2_1_" sodipodi:nodetypes="ccccccc" inkscape:connector-curvature="0" fill="#FAEBD7" d="M82.985,903.409
			l-1.143,1.593l1.143,2.949l0,2.724l0.907,0.909l1.817-3.634L82.985,903.409z"/>
		
			<path id="path4217-5-9-8_1_" sodipodi:type="arc" sodipodi:cx="92.5" sodipodi:cy="1034.8622" sodipodi:rx="7.5" sodipodi:ry="7.5" fill="#FAEBD7" d="
			M84.801,911.179c0,0.779-0.609,1.41-1.361,1.41c-0.752,0-1.364-0.63-1.363-1.411c-0.001-0.779,0.61-1.411,1.362-1.411
			C84.192,909.767,84.802,910.399,84.801,911.179z"/>
	</g>
	<path id="path4192-29-3_1_" sodipodi:nodetypes="ccacc" inkscape:connector-curvature="0" fill="#402400" d="M233.994,1027.297
		l-3.229,6.834c0,0,3.695,3.881,5.88,3.334c3.891-0.975,6.432-10.168,6.432-10.168H233.994z"/>
	
		<path id="path4166-6-4_1_" sodipodi:type="arc" sodipodi:cx="125" sodipodi:cy="927.36218" sodipodi:rx="25" sodipodi:ry="25" fill="#FAEBD7" d="
		M243.076,1027.297c0,2.508-2.033,4.541-4.541,4.541c-2.508,0-4.542-2.033-4.542-4.541s2.033-4.541,4.542-4.541
		C241.043,1022.756,243.076,1024.789,243.076,1027.297z"/>
	<path id="path4168-3-1_1_" sodipodi:nodetypes="cacsc" inkscape:connector-curvature="0" fill="#402400" d="M233.994,1027.297
		c0,0,4.094-3.162,6.358-2.725c1.261,0.242,2.725,2.725,2.725,2.725s0-4.541-4.541-4.541
		C233.994,1022.756,233.994,1027.297,233.994,1027.297"/>
	
		<path id="path4170-4-8-0_1_" sodipodi:type="arc" sodipodi:cx="115" sodipodi:cy="927.36218" sodipodi:rx="5.075954" sodipodi:ry="5.075954" fill="#402400" d="
		M241.26,1027.297c0,0.51-0.412,0.922-0.921,0.922c-0.509,0.002-0.922-0.41-0.923-0.92v-0.002c0-0.51,0.412-0.924,0.921-0.924
		c0.509,0,0.922,0.412,0.923,0.922C241.26,1027.295,241.26,1027.295,241.26,1027.297z"/>
	<g>
		<defs>
			<circle id="SVGID_7_" cx="238.535" cy="1027.297" r="4.541"/>
		</defs>
		<clipPath id="SVGID_8_">
			<use xlink:href="#SVGID_7_"  overflow="visible"/>
		</clipPath>
		
			<path id="path4190-9-9_1_" sodipodi:nodetypes="cscc" inkscape:connector-curvature="0" clip-path="url(#SVGID_8_)" fill="#FF6347" d="
			M239.749,1030.022c0,0,0.908,0.908,1.816,0.908s1.816-0.908,1.816-0.908H239.749z"/>
	</g>
	<rect id="rect4194-3-6_1_" x="237.361" y="1030.93" fill="#FAEBD7" width="2.349" height="2.725"/>
	<path id="path4198-32-2_1_" sodipodi:nodetypes="cccccc" inkscape:connector-curvature="0" fill="#80FF80" d="M235.341,1039.733
		l0.469,4.82h5.45l2.081-5.82c0-3-3.225-5.967-5-6C235.231,1032.868,234.433,1037.762,235.341,1039.733z"/>
	<rect id="rect4213-9-7_1_" x="235.81" y="1044.553" fill="#008000" width="5.45" height="0.908"/>
	
		<g id="g5501-7_1_" transform="matrix(0.95611125,0.2930039,-0.2930039,0.95611125,240.34336,39.768081)" inkscape:transform-center-y="5.292507" inkscape:transform-center-x="3.6072971">
		<g id="g5469-4-0_1_" transform="translate(10.245847,0.02278262)">
			<path id="path4261-6-3-4_1_" sodipodi:nodetypes="cccccccc" inkscape:connector-curvature="0" fill="#FAEBD7" d="
				M282.686,972.161l2.903,11.984l-1.161,1.655l1.816,0.908l1.817-0.908l-1.159-1.784l1.289-9.959L282.686,972.161z"/>
			<path id="path4281-7-8-1_1_" sodipodi:nodetypes="casacsc" inkscape:connector-curvature="0" fill="#402400" d="M285.639,983.982
				c0,0-1.379,1.109-1.211,1.817c0.423,1.785,4.178,2.723,4.784,2.724c0.605,0-0.684-1.856-1.151-2.724
				c-0.345-0.642-1.211-1.817-1.211-1.817s1.679,1.943,0.468,1.942C286.107,985.925,285.639,983.982,285.639,983.982z"/>
		</g>
	</g>
	
		<g id="g5501-6-4_1_" transform="matrix(0.99254986,-0.12183921,0.12183921,0.99254986,-175.10891,79.675803)" inkscape:transform-center-y="5.6301096" inkscape:transform-center-x="-6.1824494">
		<g id="g5469-4-2-9_1_" transform="translate(10.245847,0.02278262)">
			<path id="path4261-6-3-7-3_1_" sodipodi:nodetypes="cccccccccc" inkscape:connector-curvature="0" fill="#FAEBD7" d="
				M279.165,1020.833l1.256,2.659l0.85,8.562l-1.16,1.654l1.816,0.91l1.817-0.908l-1.159-1.783l1.715-9.802l-1.431-7.155
				L279.165,1020.833z"/>
			<path id="path4281-7-8-7-3_1_" sodipodi:nodetypes="casacsc" inkscape:connector-curvature="0" fill="#402400" d="
				M281.322,1031.893c0,0-1.379,1.108-1.211,1.815c0.423,1.787,4.178,2.725,4.784,2.726c0.606,0-0.684-1.857-1.151-2.725
				c-0.345-0.641-1.211-1.817-1.211-1.817s1.679,1.944,0.468,1.943C281.79,1033.835,281.322,1031.893,281.322,1031.893z"/>
		</g>
	</g>
	<path id="path4215-7-3_1_" sodipodi:nodetypes="csscc" inkscape:connector-curvature="0" fill="#80FF80" d="M235.883,1045.461
		c0,0-9.149,12.693-4.541,15.441c4.773,2.846,4.729-4.387,13.624-3.633c4.103,0.348-3.633-11.809-3.633-11.809H235.883z"/>
	
		<g id="g5461-2_1_" transform="matrix(0.80782482,-0.58942266,0.58942266,0.80782482,-581.53041,335.53635)" inkscape:transform-center-y="5.6952989" inkscape:transform-center-x="-3.9594442">
		
			<path id="path4217-4-7_1_" sodipodi:type="arc" sodipodi:cx="92.5" sodipodi:cy="1034.8622" sodipodi:rx="7.5" sodipodi:ry="7.5" fill="#FAEBD7" d="
			M251.388,1060.399c0,1.003-0.813,1.815-1.816,1.815c-1.004,0-1.817-0.813-1.817-1.816c0-1.003,0.814-1.817,1.816-1.816
			C250.575,1058.582,251.388,1059.395,251.388,1060.399z"/>
		<path id="path4239-1-4_1_" sodipodi:nodetypes="ccccccc" inkscape:connector-curvature="0" fill="#FAEBD7" d="M250.48,1059.187
			l-1.817,2.12l-1.511-6.102c0.679-2.747,0.124-5.983,1.51-6.908c2.224-0.239,2.725,2.414,2.725,2.414l-2.418,4.493L250.48,1059.187
			z"/>
	</g>
</g>
<g id="g3958">
	<g id="path3948">
		<path fill="#D1C56D" d="M176.608,744.872c-5.635,0-10.219-4.904-10.219-10.933c0-6.029,4.584-10.934,10.219-10.934
			c5.634,0,10.218,4.904,10.218,10.934C186.827,739.968,182.243,744.872,176.608,744.872z M176.608,727.239
			c-3.454,0-6.263,3.006-6.263,6.701c0,3.694,2.81,6.7,6.263,6.7s6.263-3.006,6.263-6.7
			C182.872,730.245,180.062,727.239,176.608,727.239z"/>
	</g>
	<g id="g3954" transform="translate(15.757614,10.37881)">
		<g id="path3950">
			<polygon fill="#D1C56D" points="191.284,762.302 162.582,731.593 167.244,726.606 191.284,752.327 195.547,747.767 
				200.208,752.754 			"/>
		</g>
		<g id="path3952">
			<polygon fill="#D1C56D" points="187.022,752.754 182.36,747.767 188.953,740.713 193.616,745.701 			"/>
		</g>
	</g>
</g>
<rect x="16.576" y="822.681" fill="#808080" width="50" height="50"/>
<rect x="116.451" y="822.681" fill="#808080" width="50" height="50"/>
<g>
	<image overflow="visible" width="122" height="122" xlink:href="D63A0FB6.png"  transform="matrix(1 0 0 1 30.5761 736.681)">
	</image>
</g>
<rect x="116.451" y="772.681" fill="#808080" width="50" height="50"/>
<g>
	<image overflow="visible" width="122" height="122" xlink:href="D63A0FBA.png"  transform="matrix(1 0 0 1 30.5761 686.681)">
	</image>
</g>
<g>
	<image overflow="visible" width="122" height="123" xlink:href="D63A0FBB.png"  transform="matrix(1 0 0 1 -19.4239 686.681)">
	</image>
</g>
<g>
	<image overflow="visible" width="123" height="122" xlink:href="D63A0FBC.png"  transform="matrix(1 0 0 1 79.5761 686.681)">
	</image>
</g>
<g>
	<image overflow="visible" width="123" height="122" xlink:href="D63A0FBD.png"  transform="matrix(1 0 0 1 79.5761 736.681)">
	</image>
</g>
<g>
	<image overflow="visible" width="122" height="122" xlink:href="D63A0FB8.png"  transform="matrix(1 0 0 1 30.5761 786.681)">
	</image>
</g>
<g>
	<image overflow="visible" width="123" height="122" xlink:href="D63A0FB9.png"  transform="matrix(1 0 0 1 79.5761 786.681)">
	</image>
</g>
<g>
	<image overflow="visible" width="122" height="122" xlink:href="D63A0FA8.png"  transform="matrix(1 0 0 1 -19.4239 786.681)">
	</image>
</g>
<g>
	<image overflow="visible" width="122" height="122" xlink:href="D63A0FA9.png"  transform="matrix(1 0 0 1 -19.4239 736.681)">
	</image>
</g>
<g>
	<rect x="16.576" y="772.931" fill="#FFFFFF" width="4" height="49.75"/>
</g>
<g>
	<rect x="66.701" y="868.556" fill="#FFFFFF" width="49.75" height="4"/>
</g>
<g opacity="0.25">
	<rect x="16.764" y="864.556" width="49.75" height="4"/>
</g>
<g opacity="0.25">
	<rect x="66.764" y="864.556" width="49.75" height="4"/>
</g>
<g>
	<rect x="16.576" y="822.806" fill="#FFFFFF" width="4" height="49.75"/>
</g>
<g opacity="0.25">
	<rect x="116.639" y="864.556" width="49.75" height="4"/>
</g>
<g opacity="0.25">
	<rect x="20.576" y="822.744" width="4" height="49.75"/>
</g>
<g opacity="0.25">
	<rect x="20.576" y="772.744" width="4" height="49.75"/>
</g>
<g>
	<rect x="16.701" y="868.556" fill="#FFFFFF" width="49.75" height="4"/>
</g>
<rect x="-33.205" y="822.775" fill="#FFB3B3" width="49.688" height="50"/>
<g opacity="0.25">
	<rect x="20.576" y="722.869" width="4" height="49.75"/>
</g>
<g>
	<rect x="66.607" y="723.006" fill="#FFFFFF" width="49.75" height="4"/>
</g>
<g>
	<rect x="16.732" y="723.006" fill="#FFFFFF" width="49.75" height="4"/>
</g>
<g opacity="0.25">
	<rect x="16.795" y="727.006" width="49.75" height="4"/>
</g>
<g opacity="0.25">
	<rect x="66.795" y="727.006" width="49.75" height="4"/>
</g>
<g>
	<rect x="16.576" y="722.946" fill="#FFFFFF" width="4" height="49.75"/>
</g>
<g>
	<image overflow="visible" width="122" height="122" xlink:href="F66444CE.png"  transform="matrix(1 0 0 1 -69.4551 686.681)">
	</image>
</g>
<g>
	<image overflow="visible" width="122" height="122" xlink:href="F66444CA.png"  transform="matrix(1 0 0 1 -69.4551 686.681)">
	</image>
</g>
<g>
	<image overflow="visible" width="122" height="123" xlink:href="F66444C9.png"  transform="matrix(1 0 0 1 -69.4551 736.681)">
	</image>
</g>
<g opacity="0.25">
	<rect x="-29.455" y="722.728" width="4" height="49.75"/>
</g>
<g opacity="0.25">
	<rect x="8.576" y="723.025" width="4" height="49.75"/>
</g>
<g>
	<rect x="-33.299" y="722.866" fill="#FFFFFF" width="49.75" height="4"/>
</g>
<g opacity="0.25">
	<rect x="-33.236" y="726.866" width="49.75" height="4"/>
</g>
<g opacity="0.25">
	<rect x="-33.275" y="765.025" width="49.75" height="4"/>
</g>
<g>
	<rect x="-33.198" y="769.025" fill="#FFFFFF" width="49.75" height="4"/>
</g>
<g>
	<rect x="12.576" y="723.025" fill="#FFFFFF" width="4" height="49.75"/>
</g>
<g>
	<rect x="-33.455" y="722.805" fill="#FFFFFF" width="4" height="49.75"/>
</g>
<g>
	<rect x="162.326" y="772.837" fill="#FFFFFF" width="4" height="49.75"/>
</g>
<g opacity="0.25">
	<rect x="158.326" y="723.025" width="4" height="49.75"/>
</g>
<g opacity="0.25">
	<rect x="158.326" y="773.025" width="4" height="49.75"/>
</g>
<g opacity="0.25">
	<rect x="158.326" y="822.9" width="4" height="49.75"/>
</g>
<g>
	<rect x="162.326" y="822.823" fill="#FFFFFF" width="4" height="49.75"/>
</g>
<g opacity="0.25">
	<rect x="116.67" y="727.006" width="49.75" height="4"/>
</g>
<g>
	<rect x="116.576" y="868.556" fill="#FFFFFF" width="49.75" height="4"/>
</g>
<g>
	<rect x="116.593" y="723.006" fill="#FFFFFF" width="49.75" height="4"/>
</g>
<g>
	<rect x="162.326" y="722.962" fill="#FFFFFF" width="4" height="49.75"/>
</g>
</svg>
